-- Merging decision tree log ---
manifest
ADDED from /Users/Danielmontoya/Documents/Semestre 11/Construccion de Aplicaciones Moviles/flutter/android/app/src/main/AndroidManifest.xml:1:1-50:12
INJECTED from /Users/Danielmontoya/Documents/Semestre 11/Construccion de Aplicaciones Moviles/flutter/android/app/src/main/AndroidManifest.xml:1:1-50:12
INJECTED from /Users/Danielmontoya/Documents/Semestre 11/Construccion de Aplicaciones Moviles/flutter/android/app/src/main/AndroidManifest.xml:1:1-50:12
INJECTED from /Users/Danielmontoya/Documents/Semestre 11/Construccion de Aplicaciones Moviles/flutter/android/app/src/main/AndroidManifest.xml:1:1-50:12
MERGED from /Users/Danielmontoya/Documents/Semestre 11/Construccion de Aplicaciones Moviles/flutter/android/app/src/main/AndroidManifest.xml:1:1-50:12
MERGED from [:geolocator] /Users/Danielmontoya/Documents/Semestre 11/Construccion de Aplicaciones Moviles/flutter/build/geolocator/intermediates/library_manifest/debug/AndroidManifest.xml:2:1-9:12
MERGED from [:google_api_availability] /Users/Danielmontoya/Documents/Semestre 11/Construccion de Aplicaciones Moviles/flutter/build/google_api_availability/intermediates/library_manifest/debug/AndroidManifest.xml:2:1-7:12
MERGED from [:local_auth] /Users/Danielmontoya/Documents/Semestre 11/Construccion de Aplicaciones Moviles/flutter/build/local_auth/intermediates/library_manifest/debug/AndroidManifest.xml:2:1-7:12
MERGED from [:flutter_plugin_android_lifecycle] /Users/Danielmontoya/Documents/Semestre 11/Construccion de Aplicaciones Moviles/flutter/build/flutter_plugin_android_lifecycle/intermediates/library_manifest/debug/AndroidManifest.xml:2:1-7:12
MERGED from [:url_launcher] /Users/Danielmontoya/Documents/Semestre 11/Construccion de Aplicaciones Moviles/flutter/build/url_launcher/intermediates/library_manifest/debug/AndroidManifest.xml:2:1-14:12
MERGED from [:cloud_firestore] /Users/Danielmontoya/Documents/Semestre 11/Construccion de Aplicaciones Moviles/flutter/build/cloud_firestore/intermediates/library_manifest/debug/AndroidManifest.xml:2:1-15:12
MERGED from [:location_permissions] /Users/Danielmontoya/Documents/Semestre 11/Construccion de Aplicaciones Moviles/flutter/build/location_permissions/intermediates/library_manifest/debug/AndroidManifest.xml:2:1-7:12
MERGED from [:firebase_auth] /Users/Danielmontoya/Documents/Semestre 11/Construccion de Aplicaciones Moviles/flutter/build/firebase_auth/intermediates/library_manifest/debug/AndroidManifest.xml:2:1-15:12
MERGED from [:firebase_core] /Users/Danielmontoya/Documents/Semestre 11/Construccion de Aplicaciones Moviles/flutter/build/firebase_core/intermediates/library_manifest/debug/AndroidManifest.xml:2:1-15:12
MERGED from [androidx.multidex:multidex:2.0.0] /Users/Danielmontoya/.gradle/caches/transforms-2/files-2.1/5e44f643e5d1e68aa83236c46ded5dc3/multidex-2.0.0/AndroidManifest.xml:17:1-22:12
MERGED from [com.google.firebase:firebase-core:17.5.1] /Users/Danielmontoya/.gradle/caches/transforms-2/files-2.1/839013054d55d2c7e839aff2be135f71/firebase-core-17.5.1/AndroidManifest.xml:2:1-9:12
MERGED from [com.google.firebase:firebase-analytics:17.6.0] /Users/Danielmontoya/.gradle/caches/transforms-2/files-2.1/66c4aa79d7a32c9c5ecdb559c514f6b8/firebase-analytics-17.6.0/AndroidManifest.xml:2:1-9:12
MERGED from [com.google.android.gms:play-services-location:16.0.0] /Users/Danielmontoya/.gradle/caches/transforms-2/files-2.1/9c38909433b5575fe7782e3b5157918f/jetified-play-services-location-16.0.0/AndroidManifest.xml:2:1-9:12
MERGED from [com.google.firebase:firebase-firestore:21.7.1] /Users/Danielmontoya/.gradle/caches/transforms-2/files-2.1/caacb1f395c8c4d9a4be8df39ac4dfc7/jetified-firebase-firestore-21.7.1/AndroidManifest.xml:2:1-26:12
MERGED from [com.google.firebase:firebase-auth:19.4.0] /Users/Danielmontoya/.gradle/caches/transforms-2/files-2.1/abba2042bd3143f77d0e39fd1bf924cc/firebase-auth-19.4.0/AndroidManifest.xml:17:1-42:12
MERGED from [com.google.firebase:firebase-database-collection:17.0.1] /Users/Danielmontoya/.gradle/caches/transforms-2/files-2.1/591867a4a47959b8fe6b53097d958759/firebase-database-collection-17.0.1/AndroidManifest.xml:2:1-9:12
MERGED from [com.google.firebase:firebase-auth-interop:19.0.0] /Users/Danielmontoya/.gradle/caches/transforms-2/files-2.1/9abf1704e28fe6b2ac45e4d2cd63fbf3/firebase-auth-interop-19.0.0/AndroidManifest.xml:2:1-10:12
MERGED from [com.google.android.gms:play-services-base:17.2.1] /Users/Danielmontoya/.gradle/caches/transforms-2/files-2.1/c7bf2bf666df0d106e3c35a59a3c937c/play-services-base-17.2.1/AndroidManifest.xml:17:1-29:12
MERGED from [androidx.biometric:biometric:1.0.0-beta01] /Users/Danielmontoya/.gradle/caches/transforms-2/files-2.1/1c96c65abaeb9f699890e43bce0e00c0/biometric-1.0.0-beta01/AndroidManifest.xml:17:1-33:12
MERGED from [com.google.android.gms:play-services-measurement:17.6.0] /Users/Danielmontoya/.gradle/caches/transforms-2/files-2.1/4445fb88bd03a7850a9d8e067866e333/play-services-measurement-17.6.0/AndroidManifest.xml:17:1-46:12
MERGED from [com.google.android.gms:play-services-measurement-api:17.6.0] /Users/Danielmontoya/.gradle/caches/transforms-2/files-2.1/87892edabe3940311c57274d2e3f6cb3/play-services-measurement-api-17.6.0/AndroidManifest.xml:17:1-36:12
MERGED from [com.google.android.gms:play-services-measurement-sdk:17.6.0] /Users/Danielmontoya/.gradle/caches/transforms-2/files-2.1/dbf769bffe866806425b3c831a4d3642/play-services-measurement-sdk-17.6.0/AndroidManifest.xml:17:1-25:12
MERGED from [com.google.firebase:firebase-installations:16.3.2] /Users/Danielmontoya/.gradle/caches/transforms-2/files-2.1/ff2efd0259911673380f14d147be15bb/firebase-installations-16.3.2/AndroidManifest.xml:2:1-23:12
MERGED from [com.google.firebase:firebase-common:19.3.1] /Users/Danielmontoya/.gradle/caches/transforms-2/files-2.1/8c6c0b73e3f47be562c7ae59a2c0f750/jetified-firebase-common-19.3.1/AndroidManifest.xml:15:1-40:12
MERGED from [com.google.firebase:firebase-installations-interop:16.0.0] /Users/Danielmontoya/.gradle/caches/transforms-2/files-2.1/7fa8b70073ae3034bfe50ee53e0787a5/firebase-installations-interop-16.0.0/AndroidManifest.xml:15:1-23:12
MERGED from [com.google.android.gms:play-services-tasks:17.0.2] /Users/Danielmontoya/.gradle/caches/transforms-2/files-2.1/de60623d808884d21ccb18ae7c42b611/play-services-tasks-17.0.2/AndroidManifest.xml:2:1-9:12
MERGED from [com.google.android.gms:play-services-places-placereport:16.0.0] /Users/Danielmontoya/.gradle/caches/transforms-2/files-2.1/e7c3e498c2555d43db3b28628ab86ef6/play-services-places-placereport-16.0.0/AndroidManifest.xml:17:1-24:12
MERGED from [com.google.android.gms:play-services-measurement-impl:17.6.0] /Users/Danielmontoya/.gradle/caches/transforms-2/files-2.1/d54db12e57d339d8c9f572e7a66162ff/play-services-measurement-impl-17.6.0/AndroidManifest.xml:17:1-31:12
MERGED from [com.google.android.gms:play-services-ads-identifier:17.0.0] /Users/Danielmontoya/.gradle/caches/transforms-2/files-2.1/f71f7293e75852f4e6c80f0e82137fca/play-services-ads-identifier-17.0.0/AndroidManifest.xml:17:1-24:12
MERGED from [com.google.android.gms:play-services-measurement-sdk-api:17.6.0] /Users/Danielmontoya/.gradle/caches/transforms-2/files-2.1/d01165e8dff366deb2bc14609fd21d47/play-services-measurement-sdk-api-17.6.0/AndroidManifest.xml:17:1-27:12
MERGED from [com.google.android.gms:play-services-measurement-base:17.6.0] /Users/Danielmontoya/.gradle/caches/transforms-2/files-2.1/ac54aeadedc5ec1207c1126c26906ac0/play-services-measurement-base-17.6.0/AndroidManifest.xml:2:1-9:12
MERGED from [com.google.android.gms:play-services-stats:17.0.0] /Users/Danielmontoya/.gradle/caches/transforms-2/files-2.1/58e0cbec31665e53271999d64561b4f3/play-services-stats-17.0.0/AndroidManifest.xml:2:1-9:12
MERGED from [com.google.firebase:firebase-measurement-connector:18.0.0] /Users/Danielmontoya/.gradle/caches/transforms-2/files-2.1/52aa99b1dafefeb265871aa9c67401a0/firebase-measurement-connector-18.0.0/AndroidManifest.xml:17:1-25:12
MERGED from [com.google.android.gms:play-services-basement:17.2.1] /Users/Danielmontoya/.gradle/caches/transforms-2/files-2.1/ca482555484431ac0083f68fd677616d/jetified-play-services-basement-17.2.1/AndroidManifest.xml:17:1-28:12
MERGED from [androidx.appcompat:appcompat:1.1.0-rc01] /Users/Danielmontoya/.gradle/caches/transforms-2/files-2.1/c103a8345108a27b3fe28a8325211bfa/appcompat-1.1.0-rc01/AndroidManifest.xml:17:1-24:12
MERGED from [androidx.fragment:fragment:1.1.0] /Users/Danielmontoya/.gradle/caches/transforms-2/files-2.1/2a043d3f5fd22167e021cf30806b5be9/fragment-1.1.0/AndroidManifest.xml:17:1-24:12
MERGED from [androidx.activity:activity:1.0.0] /Users/Danielmontoya/.gradle/caches/transforms-2/files-2.1/77b21b9d8f1dd2618c7e8ee5d418ed1b/activity-1.0.0/AndroidManifest.xml:17:1-24:12
MERGED from [androidx.viewpager:viewpager:1.0.0] /Users/Danielmontoya/.gradle/caches/transforms-2/files-2.1/f333fff089a65883db4369ab04866b77/viewpager-1.0.0/AndroidManifest.xml:17:1-22:12
MERGED from [androidx.legacy:legacy-support-core-utils:1.0.0] /Users/Danielmontoya/.gradle/caches/transforms-2/files-2.1/be0a3d96e69806a17dd3ec618a610bb9/legacy-support-core-utils-1.0.0/AndroidManifest.xml:17:1-22:12
MERGED from [androidx.loader:loader:1.0.0] /Users/Danielmontoya/.gradle/caches/transforms-2/files-2.1/f4b054b692c01d60cfa1b25a7210754e/loader-1.0.0/AndroidManifest.xml:17:1-22:12
MERGED from [androidx.drawerlayout:drawerlayout:1.0.0] /Users/Danielmontoya/.gradle/caches/transforms-2/files-2.1/2dcf679aa1864a5f60f2da220706b425/drawerlayout-1.0.0/AndroidManifest.xml:17:1-22:12
MERGED from [androidx.customview:customview:1.0.0] /Users/Danielmontoya/.gradle/caches/transforms-2/files-2.1/92d66a8a818f8339807e81b13dd23ea6/customview-1.0.0/AndroidManifest.xml:17:1-22:12
MERGED from [androidx.appcompat:appcompat-resources:1.1.0-rc01] /Users/Danielmontoya/.gradle/caches/transforms-2/files-2.1/b75e1a255ffd8dc089a935ae7863b4cd/appcompat-resources-1.1.0-rc01/AndroidManifest.xml:17:1-24:12
MERGED from [androidx.vectordrawable:vectordrawable-animated:1.1.0-rc01] /Users/Danielmontoya/.gradle/caches/transforms-2/files-2.1/c92cd362b339fac08713bf141146ec01/vectordrawable-animated-1.1.0-rc01/AndroidManifest.xml:17:1-24:12
MERGED from [androidx.vectordrawable:vectordrawable:1.1.0-rc01] /Users/Danielmontoya/.gradle/caches/transforms-2/files-2.1/df3c4981f0a30932b2cabe769b0d0fcd/vectordrawable-1.1.0-rc01/AndroidManifest.xml:17:1-24:12
MERGED from [androidx.core:core:1.2.0] /Users/Danielmontoya/.gradle/caches/transforms-2/files-2.1/a9bb833f638dbc7f5cd8bc7f2b260f34/core-1.2.0/AndroidManifest.xml:17:1-26:12
MERGED from [androidx.lifecycle:lifecycle-runtime:2.2.0] /Users/Danielmontoya/.gradle/caches/transforms-2/files-2.1/51f161b525b4fd1920f8d7a53d6b6ea8/lifecycle-runtime-2.2.0/AndroidManifest.xml:17:1-24:12
MERGED from [androidx.savedstate:savedstate:1.0.0] /Users/Danielmontoya/.gradle/caches/transforms-2/files-2.1/1db922c1d196d14487179d2aa1e2900e/savedstate-1.0.0/AndroidManifest.xml:17:1-24:12
MERGED from [androidx.lifecycle:lifecycle-livedata:2.0.0] /Users/Danielmontoya/.gradle/caches/transforms-2/files-2.1/abee5b37dba13f092deef02b35959943/lifecycle-livedata-2.0.0/AndroidManifest.xml:17:1-22:12
MERGED from [androidx.lifecycle:lifecycle-livedata-core:2.0.0] /Users/Danielmontoya/.gradle/caches/transforms-2/files-2.1/7ec00a50b8c8eec8bc982dc94cdd72df/lifecycle-livedata-core-2.0.0/AndroidManifest.xml:17:1-22:12
MERGED from [androidx.arch.core:core-runtime:2.0.0] /Users/Danielmontoya/.gradle/caches/transforms-2/files-2.1/15a45fc9279cd414e7bc73393fa60ccf/core-runtime-2.0.0/AndroidManifest.xml:17:1-22:12
MERGED from [androidx.versionedparcelable:versionedparcelable:1.1.0] /Users/Danielmontoya/.gradle/caches/transforms-2/files-2.1/8b41debddbd50aa307dba0f241fef08b/versionedparcelable-1.1.0/AndroidManifest.xml:17:1-27:12
MERGED from [com.google.firebase:firebase-components:16.0.0] /Users/Danielmontoya/.gradle/caches/transforms-2/files-2.1/34a8b95dabfb0105f099561d268e68d6/jetified-firebase-components-16.0.0/AndroidManifest.xml:15:1-23:12
MERGED from [androidx.localbroadcastmanager:localbroadcastmanager:1.0.0] /Users/Danielmontoya/.gradle/caches/transforms-2/files-2.1/03e26697d0a6e1eb3912dab2156c8fb7/localbroadcastmanager-1.0.0/AndroidManifest.xml:17:1-22:12
MERGED from [androidx.lifecycle:lifecycle-viewmodel:2.1.0] /Users/Danielmontoya/.gradle/caches/transforms-2/files-2.1/3c4344c97194b317881817238bfc5913/lifecycle-viewmodel-2.1.0/AndroidManifest.xml:17:1-22:12
MERGED from [androidx.cursoradapter:cursoradapter:1.0.0] /Users/Danielmontoya/.gradle/caches/transforms-2/files-2.1/6dadf666a149784310abb41a35b094dd/cursoradapter-1.0.0/AndroidManifest.xml:17:1-22:12
MERGED from [androidx.documentfile:documentfile:1.0.0] /Users/Danielmontoya/.gradle/caches/transforms-2/files-2.1/d3eb63bf853c789a48d650b747031fff/documentfile-1.0.0/AndroidManifest.xml:17:1-22:12
MERGED from [androidx.print:print:1.0.0] /Users/Danielmontoya/.gradle/caches/transforms-2/files-2.1/a44cec94aaed465518ad794d0c43f508/print-1.0.0/AndroidManifest.xml:17:1-22:12
MERGED from [androidx.interpolator:interpolator:1.0.0] /Users/Danielmontoya/.gradle/caches/transforms-2/files-2.1/742ed95bf955082c4e04b9881ddf75f5/interpolator-1.0.0/AndroidManifest.xml:17:1-22:12
MERGED from [com.google.firebase:protolite-well-known-types:17.1.0] /Users/Danielmontoya/.gradle/caches/transforms-2/files-2.1/9c0da2eddbdf31165e08e7f14ec09da9/protolite-well-known-types-17.1.0/AndroidManifest.xml:2:1-11:12
MERGED from [io.grpc:grpc-android:1.28.0] /Users/Danielmontoya/.gradle/caches/transforms-2/files-2.1/4526a9c01fabd3735f7a21ffe9548f90/grpc-android-1.28.0/AndroidManifest.xml:2:1-13:12
INJECTED from /Users/Danielmontoya/Documents/Semestre 11/Construccion de Aplicaciones Moviles/flutter/android/app/src/debug/AndroidManifest.xml:1:1-10:12
INJECTED from /Users/Danielmontoya/Documents/Semestre 11/Construccion de Aplicaciones Moviles/flutter/android/app/src/debug/AndroidManifest.xml:1:1-10:12
INJECTED from /Users/Danielmontoya/Documents/Semestre 11/Construccion de Aplicaciones Moviles/flutter/android/app/src/debug/AndroidManifest.xml:1:1-10:12
	package
		ADDED from /Users/Danielmontoya/Documents/Semestre 11/Construccion de Aplicaciones Moviles/flutter/android/app/src/main/AndroidManifest.xml:2:5-38
		INJECTED from /Users/Danielmontoya/Documents/Semestre 11/Construccion de Aplicaciones Moviles/flutter/android/app/src/main/AndroidManifest.xml
		INJECTED from /Users/Danielmontoya/Documents/Semestre 11/Construccion de Aplicaciones Moviles/flutter/android/app/src/debug/AndroidManifest.xml
	android:versionName
		INJECTED from /Users/Danielmontoya/Documents/Semestre 11/Construccion de Aplicaciones Moviles/flutter/android/app/src/main/AndroidManifest.xml
		ADDED from /Users/Danielmontoya/Documents/Semestre 11/Construccion de Aplicaciones Moviles/flutter/android/app/src/main/AndroidManifest.xml:1:1-50:12
		INJECTED from /Users/Danielmontoya/Documents/Semestre 11/Construccion de Aplicaciones Moviles/flutter/android/app/src/debug/AndroidManifest.xml
	android:versionCode
		INJECTED from /Users/Danielmontoya/Documents/Semestre 11/Construccion de Aplicaciones Moviles/flutter/android/app/src/main/AndroidManifest.xml
		ADDED from /Users/Danielmontoya/Documents/Semestre 11/Construccion de Aplicaciones Moviles/flutter/android/app/src/main/AndroidManifest.xml:1:1-50:12
		INJECTED from /Users/Danielmontoya/Documents/Semestre 11/Construccion de Aplicaciones Moviles/flutter/android/app/src/debug/AndroidManifest.xml
	xmlns:android
		ADDED from /Users/Danielmontoya/Documents/Semestre 11/Construccion de Aplicaciones Moviles/flutter/android/app/src/main/AndroidManifest.xml:1:11-69
uses-permission#android.permission.ACCESS_FINE_LOCATION
ADDED from /Users/Danielmontoya/Documents/Semestre 11/Construccion de Aplicaciones Moviles/flutter/android/app/src/main/AndroidManifest.xml:3:5-79
MERGED from /Users/Danielmontoya/Documents/Semestre 11/Construccion de Aplicaciones Moviles/flutter/android/app/src/main/AndroidManifest.xml:3:5-79
MERGED from /Users/Danielmontoya/Documents/Semestre 11/Construccion de Aplicaciones Moviles/flutter/android/app/src/main/AndroidManifest.xml:3:5-79
MERGED from [:geolocator] /Users/Danielmontoya/Documents/Semestre 11/Construccion de Aplicaciones Moviles/flutter/build/geolocator/intermediates/library_manifest/debug/AndroidManifest.xml:7:5-79
MERGED from [:geolocator] /Users/Danielmontoya/Documents/Semestre 11/Construccion de Aplicaciones Moviles/flutter/build/geolocator/intermediates/library_manifest/debug/AndroidManifest.xml:7:5-79
	android:name
		ADDED from /Users/Danielmontoya/Documents/Semestre 11/Construccion de Aplicaciones Moviles/flutter/android/app/src/main/AndroidManifest.xml:3:22-76
uses-permission#android.permission.ACCESS_COARSE_LOCATION
ADDED from /Users/Danielmontoya/Documents/Semestre 11/Construccion de Aplicaciones Moviles/flutter/android/app/src/main/AndroidManifest.xml:4:5-81
MERGED from /Users/Danielmontoya/Documents/Semestre 11/Construccion de Aplicaciones Moviles/flutter/android/app/src/main/AndroidManifest.xml:4:5-81
MERGED from /Users/Danielmontoya/Documents/Semestre 11/Construccion de Aplicaciones Moviles/flutter/android/app/src/main/AndroidManifest.xml:4:5-81
	android:name
		ADDED from /Users/Danielmontoya/Documents/Semestre 11/Construccion de Aplicaciones Moviles/flutter/android/app/src/main/AndroidManifest.xml:4:22-78
application
ADDED from /Users/Danielmontoya/Documents/Semestre 11/Construccion de Aplicaciones Moviles/flutter/android/app/src/main/AndroidManifest.xml:11:5-49:19
MERGED from [:url_launcher] /Users/Danielmontoya/Documents/Semestre 11/Construccion de Aplicaciones Moviles/flutter/build/url_launcher/intermediates/library_manifest/debug/AndroidManifest.xml:7:5-12:19
MERGED from [:url_launcher] /Users/Danielmontoya/Documents/Semestre 11/Construccion de Aplicaciones Moviles/flutter/build/url_launcher/intermediates/library_manifest/debug/AndroidManifest.xml:7:5-12:19
MERGED from [:cloud_firestore] /Users/Danielmontoya/Documents/Semestre 11/Construccion de Aplicaciones Moviles/flutter/build/cloud_firestore/intermediates/library_manifest/debug/AndroidManifest.xml:7:5-13:19
MERGED from [:cloud_firestore] /Users/Danielmontoya/Documents/Semestre 11/Construccion de Aplicaciones Moviles/flutter/build/cloud_firestore/intermediates/library_manifest/debug/AndroidManifest.xml:7:5-13:19
MERGED from [:firebase_auth] /Users/Danielmontoya/Documents/Semestre 11/Construccion de Aplicaciones Moviles/flutter/build/firebase_auth/intermediates/library_manifest/debug/AndroidManifest.xml:7:5-13:19
MERGED from [:firebase_auth] /Users/Danielmontoya/Documents/Semestre 11/Construccion de Aplicaciones Moviles/flutter/build/firebase_auth/intermediates/library_manifest/debug/AndroidManifest.xml:7:5-13:19
MERGED from [:firebase_core] /Users/Danielmontoya/Documents/Semestre 11/Construccion de Aplicaciones Moviles/flutter/build/firebase_core/intermediates/library_manifest/debug/AndroidManifest.xml:7:5-13:19
MERGED from [:firebase_core] /Users/Danielmontoya/Documents/Semestre 11/Construccion de Aplicaciones Moviles/flutter/build/firebase_core/intermediates/library_manifest/debug/AndroidManifest.xml:7:5-13:19
MERGED from [com.google.firebase:firebase-core:17.5.1] /Users/Danielmontoya/.gradle/caches/transforms-2/files-2.1/839013054d55d2c7e839aff2be135f71/firebase-core-17.5.1/AndroidManifest.xml:7:5-20
MERGED from [com.google.firebase:firebase-core:17.5.1] /Users/Danielmontoya/.gradle/caches/transforms-2/files-2.1/839013054d55d2c7e839aff2be135f71/firebase-core-17.5.1/AndroidManifest.xml:7:5-20
MERGED from [com.google.firebase:firebase-analytics:17.6.0] /Users/Danielmontoya/.gradle/caches/transforms-2/files-2.1/66c4aa79d7a32c9c5ecdb559c514f6b8/firebase-analytics-17.6.0/AndroidManifest.xml:7:5-20
MERGED from [com.google.firebase:firebase-analytics:17.6.0] /Users/Danielmontoya/.gradle/caches/transforms-2/files-2.1/66c4aa79d7a32c9c5ecdb559c514f6b8/firebase-analytics-17.6.0/AndroidManifest.xml:7:5-20
MERGED from [com.google.android.gms:play-services-location:16.0.0] /Users/Danielmontoya/.gradle/caches/transforms-2/files-2.1/9c38909433b5575fe7782e3b5157918f/jetified-play-services-location-16.0.0/AndroidManifest.xml:7:5-20
MERGED from [com.google.android.gms:play-services-location:16.0.0] /Users/Danielmontoya/.gradle/caches/transforms-2/files-2.1/9c38909433b5575fe7782e3b5157918f/jetified-play-services-location-16.0.0/AndroidManifest.xml:7:5-20
MERGED from [com.google.firebase:firebase-firestore:21.7.1] /Users/Danielmontoya/.gradle/caches/transforms-2/files-2.1/caacb1f395c8c4d9a4be8df39ac4dfc7/jetified-firebase-firestore-21.7.1/AndroidManifest.xml:16:5-24:19
MERGED from [com.google.firebase:firebase-firestore:21.7.1] /Users/Danielmontoya/.gradle/caches/transforms-2/files-2.1/caacb1f395c8c4d9a4be8df39ac4dfc7/jetified-firebase-firestore-21.7.1/AndroidManifest.xml:16:5-24:19
MERGED from [com.google.firebase:firebase-auth:19.4.0] /Users/Danielmontoya/.gradle/caches/transforms-2/files-2.1/abba2042bd3143f77d0e39fd1bf924cc/firebase-auth-19.4.0/AndroidManifest.xml:23:5-40:19
MERGED from [com.google.firebase:firebase-auth:19.4.0] /Users/Danielmontoya/.gradle/caches/transforms-2/files-2.1/abba2042bd3143f77d0e39fd1bf924cc/firebase-auth-19.4.0/AndroidManifest.xml:23:5-40:19
MERGED from [com.google.firebase:firebase-auth-interop:19.0.0] /Users/Danielmontoya/.gradle/caches/transforms-2/files-2.1/9abf1704e28fe6b2ac45e4d2cd63fbf3/firebase-auth-interop-19.0.0/AndroidManifest.xml:7:5-8:19
MERGED from [com.google.firebase:firebase-auth-interop:19.0.0] /Users/Danielmontoya/.gradle/caches/transforms-2/files-2.1/9abf1704e28fe6b2ac45e4d2cd63fbf3/firebase-auth-interop-19.0.0/AndroidManifest.xml:7:5-8:19
MERGED from [com.google.android.gms:play-services-base:17.2.1] /Users/Danielmontoya/.gradle/caches/transforms-2/files-2.1/c7bf2bf666df0d106e3c35a59a3c937c/play-services-base-17.2.1/AndroidManifest.xml:22:5-27:19
MERGED from [com.google.android.gms:play-services-base:17.2.1] /Users/Danielmontoya/.gradle/caches/transforms-2/files-2.1/c7bf2bf666df0d106e3c35a59a3c937c/play-services-base-17.2.1/AndroidManifest.xml:22:5-27:19
MERGED from [androidx.biometric:biometric:1.0.0-beta01] /Users/Danielmontoya/.gradle/caches/transforms-2/files-2.1/1c96c65abaeb9f699890e43bce0e00c0/biometric-1.0.0-beta01/AndroidManifest.xml:27:5-31:19
MERGED from [androidx.biometric:biometric:1.0.0-beta01] /Users/Danielmontoya/.gradle/caches/transforms-2/files-2.1/1c96c65abaeb9f699890e43bce0e00c0/biometric-1.0.0-beta01/AndroidManifest.xml:27:5-31:19
MERGED from [com.google.android.gms:play-services-measurement:17.6.0] /Users/Danielmontoya/.gradle/caches/transforms-2/files-2.1/4445fb88bd03a7850a9d8e067866e333/play-services-measurement-17.6.0/AndroidManifest.xml:28:5-44:19
MERGED from [com.google.android.gms:play-services-measurement:17.6.0] /Users/Danielmontoya/.gradle/caches/transforms-2/files-2.1/4445fb88bd03a7850a9d8e067866e333/play-services-measurement-17.6.0/AndroidManifest.xml:28:5-44:19
MERGED from [com.google.android.gms:play-services-measurement-api:17.6.0] /Users/Danielmontoya/.gradle/caches/transforms-2/files-2.1/87892edabe3940311c57274d2e3f6cb3/play-services-measurement-api-17.6.0/AndroidManifest.xml:26:5-34:19
MERGED from [com.google.android.gms:play-services-measurement-api:17.6.0] /Users/Danielmontoya/.gradle/caches/transforms-2/files-2.1/87892edabe3940311c57274d2e3f6cb3/play-services-measurement-api-17.6.0/AndroidManifest.xml:26:5-34:19
MERGED from [com.google.android.gms:play-services-measurement-sdk:17.6.0] /Users/Danielmontoya/.gradle/caches/transforms-2/files-2.1/dbf769bffe866806425b3c831a4d3642/play-services-measurement-sdk-17.6.0/AndroidManifest.xml:22:5-23:19
MERGED from [com.google.android.gms:play-services-measurement-sdk:17.6.0] /Users/Danielmontoya/.gradle/caches/transforms-2/files-2.1/dbf769bffe866806425b3c831a4d3642/play-services-measurement-sdk-17.6.0/AndroidManifest.xml:22:5-23:19
MERGED from [com.google.firebase:firebase-installations:16.3.2] /Users/Danielmontoya/.gradle/caches/transforms-2/files-2.1/ff2efd0259911673380f14d147be15bb/firebase-installations-16.3.2/AndroidManifest.xml:13:5-21:19
MERGED from [com.google.firebase:firebase-installations:16.3.2] /Users/Danielmontoya/.gradle/caches/transforms-2/files-2.1/ff2efd0259911673380f14d147be15bb/firebase-installations-16.3.2/AndroidManifest.xml:13:5-21:19
MERGED from [com.google.firebase:firebase-common:19.3.1] /Users/Danielmontoya/.gradle/caches/transforms-2/files-2.1/8c6c0b73e3f47be562c7ae59a2c0f750/jetified-firebase-common-19.3.1/AndroidManifest.xml:25:5-38:19
MERGED from [com.google.firebase:firebase-common:19.3.1] /Users/Danielmontoya/.gradle/caches/transforms-2/files-2.1/8c6c0b73e3f47be562c7ae59a2c0f750/jetified-firebase-common-19.3.1/AndroidManifest.xml:25:5-38:19
MERGED from [com.google.android.gms:play-services-tasks:17.0.2] /Users/Danielmontoya/.gradle/caches/transforms-2/files-2.1/de60623d808884d21ccb18ae7c42b611/play-services-tasks-17.0.2/AndroidManifest.xml:7:5-20
MERGED from [com.google.android.gms:play-services-tasks:17.0.2] /Users/Danielmontoya/.gradle/caches/transforms-2/files-2.1/de60623d808884d21ccb18ae7c42b611/play-services-tasks-17.0.2/AndroidManifest.xml:7:5-20
MERGED from [com.google.android.gms:play-services-places-placereport:16.0.0] /Users/Danielmontoya/.gradle/caches/transforms-2/files-2.1/e7c3e498c2555d43db3b28628ab86ef6/play-services-places-placereport-16.0.0/AndroidManifest.xml:22:5-20
MERGED from [com.google.android.gms:play-services-places-placereport:16.0.0] /Users/Danielmontoya/.gradle/caches/transforms-2/files-2.1/e7c3e498c2555d43db3b28628ab86ef6/play-services-places-placereport-16.0.0/AndroidManifest.xml:22:5-20
MERGED from [com.google.android.gms:play-services-measurement-impl:17.6.0] /Users/Danielmontoya/.gradle/caches/transforms-2/files-2.1/d54db12e57d339d8c9f572e7a66162ff/play-services-measurement-impl-17.6.0/AndroidManifest.xml:28:5-29:19
MERGED from [com.google.android.gms:play-services-measurement-impl:17.6.0] /Users/Danielmontoya/.gradle/caches/transforms-2/files-2.1/d54db12e57d339d8c9f572e7a66162ff/play-services-measurement-impl-17.6.0/AndroidManifest.xml:28:5-29:19
MERGED from [com.google.android.gms:play-services-ads-identifier:17.0.0] /Users/Danielmontoya/.gradle/caches/transforms-2/files-2.1/f71f7293e75852f4e6c80f0e82137fca/play-services-ads-identifier-17.0.0/AndroidManifest.xml:22:5-20
MERGED from [com.google.android.gms:play-services-ads-identifier:17.0.0] /Users/Danielmontoya/.gradle/caches/transforms-2/files-2.1/f71f7293e75852f4e6c80f0e82137fca/play-services-ads-identifier-17.0.0/AndroidManifest.xml:22:5-20
MERGED from [com.google.android.gms:play-services-measurement-base:17.6.0] /Users/Danielmontoya/.gradle/caches/transforms-2/files-2.1/ac54aeadedc5ec1207c1126c26906ac0/play-services-measurement-base-17.6.0/AndroidManifest.xml:7:5-20
MERGED from [com.google.android.gms:play-services-measurement-base:17.6.0] /Users/Danielmontoya/.gradle/caches/transforms-2/files-2.1/ac54aeadedc5ec1207c1126c26906ac0/play-services-measurement-base-17.6.0/AndroidManifest.xml:7:5-20
MERGED from [com.google.android.gms:play-services-stats:17.0.0] /Users/Danielmontoya/.gradle/caches/transforms-2/files-2.1/58e0cbec31665e53271999d64561b4f3/play-services-stats-17.0.0/AndroidManifest.xml:7:5-20
MERGED from [com.google.android.gms:play-services-stats:17.0.0] /Users/Danielmontoya/.gradle/caches/transforms-2/files-2.1/58e0cbec31665e53271999d64561b4f3/play-services-stats-17.0.0/AndroidManifest.xml:7:5-20
MERGED from [com.google.firebase:firebase-measurement-connector:18.0.0] /Users/Danielmontoya/.gradle/caches/transforms-2/files-2.1/52aa99b1dafefeb265871aa9c67401a0/firebase-measurement-connector-18.0.0/AndroidManifest.xml:22:5-23:19
MERGED from [com.google.firebase:firebase-measurement-connector:18.0.0] /Users/Danielmontoya/.gradle/caches/transforms-2/files-2.1/52aa99b1dafefeb265871aa9c67401a0/firebase-measurement-connector-18.0.0/AndroidManifest.xml:22:5-23:19
MERGED from [com.google.android.gms:play-services-basement:17.2.1] /Users/Danielmontoya/.gradle/caches/transforms-2/files-2.1/ca482555484431ac0083f68fd677616d/jetified-play-services-basement-17.2.1/AndroidManifest.xml:22:5-26:19
MERGED from [com.google.android.gms:play-services-basement:17.2.1] /Users/Danielmontoya/.gradle/caches/transforms-2/files-2.1/ca482555484431ac0083f68fd677616d/jetified-play-services-basement-17.2.1/AndroidManifest.xml:22:5-26:19
MERGED from [androidx.core:core:1.2.0] /Users/Danielmontoya/.gradle/caches/transforms-2/files-2.1/a9bb833f638dbc7f5cd8bc7f2b260f34/core-1.2.0/AndroidManifest.xml:24:5-89
MERGED from [androidx.core:core:1.2.0] /Users/Danielmontoya/.gradle/caches/transforms-2/files-2.1/a9bb833f638dbc7f5cd8bc7f2b260f34/core-1.2.0/AndroidManifest.xml:24:5-89
MERGED from [androidx.versionedparcelable:versionedparcelable:1.1.0] /Users/Danielmontoya/.gradle/caches/transforms-2/files-2.1/8b41debddbd50aa307dba0f241fef08b/versionedparcelable-1.1.0/AndroidManifest.xml:24:5-25:19
MERGED from [androidx.versionedparcelable:versionedparcelable:1.1.0] /Users/Danielmontoya/.gradle/caches/transforms-2/files-2.1/8b41debddbd50aa307dba0f241fef08b/versionedparcelable-1.1.0/AndroidManifest.xml:24:5-25:19
	android:appComponentFactory
		ADDED from [androidx.core:core:1.2.0] /Users/Danielmontoya/.gradle/caches/transforms-2/files-2.1/a9bb833f638dbc7f5cd8bc7f2b260f34/core-1.2.0/AndroidManifest.xml:24:18-86
	android:label
		ADDED from /Users/Danielmontoya/Documents/Semestre 11/Construccion de Aplicaciones Moviles/flutter/android/app/src/main/AndroidManifest.xml:13:9-36
	android:icon
		ADDED from /Users/Danielmontoya/Documents/Semestre 11/Construccion de Aplicaciones Moviles/flutter/android/app/src/main/AndroidManifest.xml:14:9-43
	android:name
		ADDED from /Users/Danielmontoya/Documents/Semestre 11/Construccion de Aplicaciones Moviles/flutter/android/app/src/main/AndroidManifest.xml:12:9-57
activity#com.example.flutter_app.MainActivity
ADDED from /Users/Danielmontoya/Documents/Semestre 11/Construccion de Aplicaciones Moviles/flutter/android/app/src/main/AndroidManifest.xml:15:9-43:20
	android:launchMode
		ADDED from /Users/Danielmontoya/Documents/Semestre 11/Construccion de Aplicaciones Moviles/flutter/android/app/src/main/AndroidManifest.xml:17:13-43
	android:hardwareAccelerated
		ADDED from /Users/Danielmontoya/Documents/Semestre 11/Construccion de Aplicaciones Moviles/flutter/android/app/src/main/AndroidManifest.xml:20:13-47
	android:windowSoftInputMode
		ADDED from /Users/Danielmontoya/Documents/Semestre 11/Construccion de Aplicaciones Moviles/flutter/android/app/src/main/AndroidManifest.xml:21:13-55
	android:configChanges
		ADDED from /Users/Danielmontoya/Documents/Semestre 11/Construccion de Aplicaciones Moviles/flutter/android/app/src/main/AndroidManifest.xml:19:13-163
	android:theme
		ADDED from /Users/Danielmontoya/Documents/Semestre 11/Construccion de Aplicaciones Moviles/flutter/android/app/src/main/AndroidManifest.xml:18:13-47
	android:name
		ADDED from /Users/Danielmontoya/Documents/Semestre 11/Construccion de Aplicaciones Moviles/flutter/android/app/src/main/AndroidManifest.xml:16:13-41
meta-data#io.flutter.embedding.android.NormalTheme
ADDED from /Users/Danielmontoya/Documents/Semestre 11/Construccion de Aplicaciones Moviles/flutter/android/app/src/main/AndroidManifest.xml:26:13-29:17
	android:resource
		ADDED from /Users/Danielmontoya/Documents/Semestre 11/Construccion de Aplicaciones Moviles/flutter/android/app/src/main/AndroidManifest.xml:28:15-52
	android:name
		ADDED from /Users/Danielmontoya/Documents/Semestre 11/Construccion de Aplicaciones Moviles/flutter/android/app/src/main/AndroidManifest.xml:27:15-70
meta-data#io.flutter.embedding.android.SplashScreenDrawable
ADDED from /Users/Danielmontoya/Documents/Semestre 11/Construccion de Aplicaciones Moviles/flutter/android/app/src/main/AndroidManifest.xml:35:13-38:17
	android:resource
		ADDED from /Users/Danielmontoya/Documents/Semestre 11/Construccion de Aplicaciones Moviles/flutter/android/app/src/main/AndroidManifest.xml:37:15-61
	android:name
		ADDED from /Users/Danielmontoya/Documents/Semestre 11/Construccion de Aplicaciones Moviles/flutter/android/app/src/main/AndroidManifest.xml:36:15-79
intent-filter#action:name:android.intent.action.MAIN+category:name:android.intent.category.LAUNCHER
ADDED from /Users/Danielmontoya/Documents/Semestre 11/Construccion de Aplicaciones Moviles/flutter/android/app/src/main/AndroidManifest.xml:39:13-42:29
action#android.intent.action.MAIN
ADDED from /Users/Danielmontoya/Documents/Semestre 11/Construccion de Aplicaciones Moviles/flutter/android/app/src/main/AndroidManifest.xml:40:17-68
	android:name
		ADDED from /Users/Danielmontoya/Documents/Semestre 11/Construccion de Aplicaciones Moviles/flutter/android/app/src/main/AndroidManifest.xml:40:25-66
category#android.intent.category.LAUNCHER
ADDED from /Users/Danielmontoya/Documents/Semestre 11/Construccion de Aplicaciones Moviles/flutter/android/app/src/main/AndroidManifest.xml:41:17-76
	android:name
		ADDED from /Users/Danielmontoya/Documents/Semestre 11/Construccion de Aplicaciones Moviles/flutter/android/app/src/main/AndroidManifest.xml:41:27-74
meta-data#flutterEmbedding
ADDED from /Users/Danielmontoya/Documents/Semestre 11/Construccion de Aplicaciones Moviles/flutter/android/app/src/main/AndroidManifest.xml:46:9-48:33
	android:value
		ADDED from /Users/Danielmontoya/Documents/Semestre 11/Construccion de Aplicaciones Moviles/flutter/android/app/src/main/AndroidManifest.xml:48:13-30
	android:name
		ADDED from /Users/Danielmontoya/Documents/Semestre 11/Construccion de Aplicaciones Moviles/flutter/android/app/src/main/AndroidManifest.xml:47:13-44
uses-sdk
INJECTED from /Users/Danielmontoya/Documents/Semestre 11/Construccion de Aplicaciones Moviles/flutter/android/app/src/main/AndroidManifest.xml reason: use-sdk injection requested
INJECTED from /Users/Danielmontoya/Documents/Semestre 11/Construccion de Aplicaciones Moviles/flutter/android/app/src/main/AndroidManifest.xml
INJECTED from /Users/Danielmontoya/Documents/Semestre 11/Construccion de Aplicaciones Moviles/flutter/android/app/src/main/AndroidManifest.xml
MERGED from [:geolocator] /Users/Danielmontoya/Documents/Semestre 11/Construccion de Aplicaciones Moviles/flutter/build/geolocator/intermediates/library_manifest/debug/AndroidManifest.xml:5:5-44
MERGED from [:geolocator] /Users/Danielmontoya/Documents/Semestre 11/Construccion de Aplicaciones Moviles/flutter/build/geolocator/intermediates/library_manifest/debug/AndroidManifest.xml:5:5-44
MERGED from [:google_api_availability] /Users/Danielmontoya/Documents/Semestre 11/Construccion de Aplicaciones Moviles/flutter/build/google_api_availability/intermediates/library_manifest/debug/AndroidManifest.xml:5:5-44
MERGED from [:google_api_availability] /Users/Danielmontoya/Documents/Semestre 11/Construccion de Aplicaciones Moviles/flutter/build/google_api_availability/intermediates/library_manifest/debug/AndroidManifest.xml:5:5-44
MERGED from [:local_auth] /Users/Danielmontoya/Documents/Semestre 11/Construccion de Aplicaciones Moviles/flutter/build/local_auth/intermediates/library_manifest/debug/AndroidManifest.xml:5:5-44
MERGED from [:local_auth] /Users/Danielmontoya/Documents/Semestre 11/Construccion de Aplicaciones Moviles/flutter/build/local_auth/intermediates/library_manifest/debug/AndroidManifest.xml:5:5-44
MERGED from [:flutter_plugin_android_lifecycle] /Users/Danielmontoya/Documents/Semestre 11/Construccion de Aplicaciones Moviles/flutter/build/flutter_plugin_android_lifecycle/intermediates/library_manifest/debug/AndroidManifest.xml:5:5-44
MERGED from [:flutter_plugin_android_lifecycle] /Users/Danielmontoya/Documents/Semestre 11/Construccion de Aplicaciones Moviles/flutter/build/flutter_plugin_android_lifecycle/intermediates/library_manifest/debug/AndroidManifest.xml:5:5-44
MERGED from [:url_launcher] /Users/Danielmontoya/Documents/Semestre 11/Construccion de Aplicaciones Moviles/flutter/build/url_launcher/intermediates/library_manifest/debug/AndroidManifest.xml:5:5-44
MERGED from [:url_launcher] /Users/Danielmontoya/Documents/Semestre 11/Construccion de Aplicaciones Moviles/flutter/build/url_launcher/intermediates/library_manifest/debug/AndroidManifest.xml:5:5-44
MERGED from [:cloud_firestore] /Users/Danielmontoya/Documents/Semestre 11/Construccion de Aplicaciones Moviles/flutter/build/cloud_firestore/intermediates/library_manifest/debug/AndroidManifest.xml:5:5-44
MERGED from [:cloud_firestore] /Users/Danielmontoya/Documents/Semestre 11/Construccion de Aplicaciones Moviles/flutter/build/cloud_firestore/intermediates/library_manifest/debug/AndroidManifest.xml:5:5-44
MERGED from [:location_permissions] /Users/Danielmontoya/Documents/Semestre 11/Construccion de Aplicaciones Moviles/flutter/build/location_permissions/intermediates/library_manifest/debug/AndroidManifest.xml:5:5-44
MERGED from [:location_permissions] /Users/Danielmontoya/Documents/Semestre 11/Construccion de Aplicaciones Moviles/flutter/build/location_permissions/intermediates/library_manifest/debug/AndroidManifest.xml:5:5-44
MERGED from [:firebase_auth] /Users/Danielmontoya/Documents/Semestre 11/Construccion de Aplicaciones Moviles/flutter/build/firebase_auth/intermediates/library_manifest/debug/AndroidManifest.xml:5:5-44
MERGED from [:firebase_auth] /Users/Danielmontoya/Documents/Semestre 11/Construccion de Aplicaciones Moviles/flutter/build/firebase_auth/intermediates/library_manifest/debug/AndroidManifest.xml:5:5-44
MERGED from [:firebase_core] /Users/Danielmontoya/Documents/Semestre 11/Construccion de Aplicaciones Moviles/flutter/build/firebase_core/intermediates/library_manifest/debug/AndroidManifest.xml:5:5-44
MERGED from [:firebase_core] /Users/Danielmontoya/Documents/Semestre 11/Construccion de Aplicaciones Moviles/flutter/build/firebase_core/intermediates/library_manifest/debug/AndroidManifest.xml:5:5-44
MERGED from [androidx.multidex:multidex:2.0.0] /Users/Danielmontoya/.gradle/caches/transforms-2/files-2.1/5e44f643e5d1e68aa83236c46ded5dc3/multidex-2.0.0/AndroidManifest.xml:20:5-43
MERGED from [androidx.multidex:multidex:2.0.0] /Users/Danielmontoya/.gradle/caches/transforms-2/files-2.1/5e44f643e5d1e68aa83236c46ded5dc3/multidex-2.0.0/AndroidManifest.xml:20:5-43
MERGED from [com.google.firebase:firebase-core:17.5.1] /Users/Danielmontoya/.gradle/caches/transforms-2/files-2.1/839013054d55d2c7e839aff2be135f71/firebase-core-17.5.1/AndroidManifest.xml:5:5-44
MERGED from [com.google.firebase:firebase-core:17.5.1] /Users/Danielmontoya/.gradle/caches/transforms-2/files-2.1/839013054d55d2c7e839aff2be135f71/firebase-core-17.5.1/AndroidManifest.xml:5:5-44
MERGED from [com.google.firebase:firebase-analytics:17.6.0] /Users/Danielmontoya/.gradle/caches/transforms-2/files-2.1/66c4aa79d7a32c9c5ecdb559c514f6b8/firebase-analytics-17.6.0/AndroidManifest.xml:5:5-44
MERGED from [com.google.firebase:firebase-analytics:17.6.0] /Users/Danielmontoya/.gradle/caches/transforms-2/files-2.1/66c4aa79d7a32c9c5ecdb559c514f6b8/firebase-analytics-17.6.0/AndroidManifest.xml:5:5-44
MERGED from [com.google.android.gms:play-services-location:16.0.0] /Users/Danielmontoya/.gradle/caches/transforms-2/files-2.1/9c38909433b5575fe7782e3b5157918f/jetified-play-services-location-16.0.0/AndroidManifest.xml:5:5-44
MERGED from [com.google.android.gms:play-services-location:16.0.0] /Users/Danielmontoya/.gradle/caches/transforms-2/files-2.1/9c38909433b5575fe7782e3b5157918f/jetified-play-services-location-16.0.0/AndroidManifest.xml:5:5-44
MERGED from [com.google.firebase:firebase-firestore:21.7.1] /Users/Danielmontoya/.gradle/caches/transforms-2/files-2.1/caacb1f395c8c4d9a4be8df39ac4dfc7/jetified-firebase-firestore-21.7.1/AndroidManifest.xml:7:5-9:41
MERGED from [com.google.firebase:firebase-firestore:21.7.1] /Users/Danielmontoya/.gradle/caches/transforms-2/files-2.1/caacb1f395c8c4d9a4be8df39ac4dfc7/jetified-firebase-firestore-21.7.1/AndroidManifest.xml:7:5-9:41
MERGED from [com.google.firebase:firebase-auth:19.4.0] /Users/Danielmontoya/.gradle/caches/transforms-2/files-2.1/abba2042bd3143f77d0e39fd1bf924cc/firebase-auth-19.4.0/AndroidManifest.xml:21:5-44
MERGED from [com.google.firebase:firebase-auth:19.4.0] /Users/Danielmontoya/.gradle/caches/transforms-2/files-2.1/abba2042bd3143f77d0e39fd1bf924cc/firebase-auth-19.4.0/AndroidManifest.xml:21:5-44
MERGED from [com.google.firebase:firebase-database-collection:17.0.1] /Users/Danielmontoya/.gradle/caches/transforms-2/files-2.1/591867a4a47959b8fe6b53097d958759/firebase-database-collection-17.0.1/AndroidManifest.xml:5:5-7:41
MERGED from [com.google.firebase:firebase-database-collection:17.0.1] /Users/Danielmontoya/.gradle/caches/transforms-2/files-2.1/591867a4a47959b8fe6b53097d958759/firebase-database-collection-17.0.1/AndroidManifest.xml:5:5-7:41
MERGED from [com.google.firebase:firebase-auth-interop:19.0.0] /Users/Danielmontoya/.gradle/caches/transforms-2/files-2.1/9abf1704e28fe6b2ac45e4d2cd63fbf3/firebase-auth-interop-19.0.0/AndroidManifest.xml:5:5-44
MERGED from [com.google.firebase:firebase-auth-interop:19.0.0] /Users/Danielmontoya/.gradle/caches/transforms-2/files-2.1/9abf1704e28fe6b2ac45e4d2cd63fbf3/firebase-auth-interop-19.0.0/AndroidManifest.xml:5:5-44
MERGED from [com.google.android.gms:play-services-base:17.2.1] /Users/Danielmontoya/.gradle/caches/transforms-2/files-2.1/c7bf2bf666df0d106e3c35a59a3c937c/play-services-base-17.2.1/AndroidManifest.xml:20:5-44
MERGED from [com.google.android.gms:play-services-base:17.2.1] /Users/Danielmontoya/.gradle/caches/transforms-2/files-2.1/c7bf2bf666df0d106e3c35a59a3c937c/play-services-base-17.2.1/AndroidManifest.xml:20:5-44
MERGED from [androidx.biometric:biometric:1.0.0-beta01] /Users/Danielmontoya/.gradle/caches/transforms-2/files-2.1/1c96c65abaeb9f699890e43bce0e00c0/biometric-1.0.0-beta01/AndroidManifest.xml:20:5-22:41
MERGED from [androidx.biometric:biometric:1.0.0-beta01] /Users/Danielmontoya/.gradle/caches/transforms-2/files-2.1/1c96c65abaeb9f699890e43bce0e00c0/biometric-1.0.0-beta01/AndroidManifest.xml:20:5-22:41
MERGED from [com.google.android.gms:play-services-measurement:17.6.0] /Users/Danielmontoya/.gradle/caches/transforms-2/files-2.1/4445fb88bd03a7850a9d8e067866e333/play-services-measurement-17.6.0/AndroidManifest.xml:20:5-44
MERGED from [com.google.android.gms:play-services-measurement:17.6.0] /Users/Danielmontoya/.gradle/caches/transforms-2/files-2.1/4445fb88bd03a7850a9d8e067866e333/play-services-measurement-17.6.0/AndroidManifest.xml:20:5-44
MERGED from [com.google.android.gms:play-services-measurement-api:17.6.0] /Users/Danielmontoya/.gradle/caches/transforms-2/files-2.1/87892edabe3940311c57274d2e3f6cb3/play-services-measurement-api-17.6.0/AndroidManifest.xml:20:5-44
MERGED from [com.google.android.gms:play-services-measurement-api:17.6.0] /Users/Danielmontoya/.gradle/caches/transforms-2/files-2.1/87892edabe3940311c57274d2e3f6cb3/play-services-measurement-api-17.6.0/AndroidManifest.xml:20:5-44
MERGED from [com.google.android.gms:play-services-measurement-sdk:17.6.0] /Users/Danielmontoya/.gradle/caches/transforms-2/files-2.1/dbf769bffe866806425b3c831a4d3642/play-services-measurement-sdk-17.6.0/AndroidManifest.xml:20:5-44
MERGED from [com.google.android.gms:play-services-measurement-sdk:17.6.0] /Users/Danielmontoya/.gradle/caches/transforms-2/files-2.1/dbf769bffe866806425b3c831a4d3642/play-services-measurement-sdk-17.6.0/AndroidManifest.xml:20:5-44
MERGED from [com.google.firebase:firebase-installations:16.3.2] /Users/Danielmontoya/.gradle/caches/transforms-2/files-2.1/ff2efd0259911673380f14d147be15bb/firebase-installations-16.3.2/AndroidManifest.xml:6:5-8:41
MERGED from [com.google.firebase:firebase-installations:16.3.2] /Users/Danielmontoya/.gradle/caches/transforms-2/files-2.1/ff2efd0259911673380f14d147be15bb/firebase-installations-16.3.2/AndroidManifest.xml:6:5-8:41
MERGED from [com.google.firebase:firebase-common:19.3.1] /Users/Danielmontoya/.gradle/caches/transforms-2/files-2.1/8c6c0b73e3f47be562c7ae59a2c0f750/jetified-firebase-common-19.3.1/AndroidManifest.xml:20:5-22:41
MERGED from [com.google.firebase:firebase-common:19.3.1] /Users/Danielmontoya/.gradle/caches/transforms-2/files-2.1/8c6c0b73e3f47be562c7ae59a2c0f750/jetified-firebase-common-19.3.1/AndroidManifest.xml:20:5-22:41
MERGED from [com.google.firebase:firebase-installations-interop:16.0.0] /Users/Danielmontoya/.gradle/caches/transforms-2/files-2.1/7fa8b70073ae3034bfe50ee53e0787a5/firebase-installations-interop-16.0.0/AndroidManifest.xml:19:5-21:41
MERGED from [com.google.firebase:firebase-installations-interop:16.0.0] /Users/Danielmontoya/.gradle/caches/transforms-2/files-2.1/7fa8b70073ae3034bfe50ee53e0787a5/firebase-installations-interop-16.0.0/AndroidManifest.xml:19:5-21:41
MERGED from [com.google.android.gms:play-services-tasks:17.0.2] /Users/Danielmontoya/.gradle/caches/transforms-2/files-2.1/de60623d808884d21ccb18ae7c42b611/play-services-tasks-17.0.2/AndroidManifest.xml:5:5-44
MERGED from [com.google.android.gms:play-services-tasks:17.0.2] /Users/Danielmontoya/.gradle/caches/transforms-2/files-2.1/de60623d808884d21ccb18ae7c42b611/play-services-tasks-17.0.2/AndroidManifest.xml:5:5-44
MERGED from [com.google.android.gms:play-services-places-placereport:16.0.0] /Users/Danielmontoya/.gradle/caches/transforms-2/files-2.1/e7c3e498c2555d43db3b28628ab86ef6/play-services-places-placereport-16.0.0/AndroidManifest.xml:20:5-44
MERGED from [com.google.android.gms:play-services-places-placereport:16.0.0] /Users/Danielmontoya/.gradle/caches/transforms-2/files-2.1/e7c3e498c2555d43db3b28628ab86ef6/play-services-places-placereport-16.0.0/AndroidManifest.xml:20:5-44
MERGED from [com.google.android.gms:play-services-measurement-impl:17.6.0] /Users/Danielmontoya/.gradle/caches/transforms-2/files-2.1/d54db12e57d339d8c9f572e7a66162ff/play-services-measurement-impl-17.6.0/AndroidManifest.xml:20:5-44
MERGED from [com.google.android.gms:play-services-measurement-impl:17.6.0] /Users/Danielmontoya/.gradle/caches/transforms-2/files-2.1/d54db12e57d339d8c9f572e7a66162ff/play-services-measurement-impl-17.6.0/AndroidManifest.xml:20:5-44
MERGED from [com.google.android.gms:play-services-ads-identifier:17.0.0] /Users/Danielmontoya/.gradle/caches/transforms-2/files-2.1/f71f7293e75852f4e6c80f0e82137fca/play-services-ads-identifier-17.0.0/AndroidManifest.xml:20:5-44
MERGED from [com.google.android.gms:play-services-ads-identifier:17.0.0] /Users/Danielmontoya/.gradle/caches/transforms-2/files-2.1/f71f7293e75852f4e6c80f0e82137fca/play-services-ads-identifier-17.0.0/AndroidManifest.xml:20:5-44
MERGED from [com.google.android.gms:play-services-measurement-sdk-api:17.6.0] /Users/Danielmontoya/.gradle/caches/transforms-2/files-2.1/d01165e8dff366deb2bc14609fd21d47/play-services-measurement-sdk-api-17.6.0/AndroidManifest.xml:20:5-44
MERGED from [com.google.android.gms:play-services-measurement-sdk-api:17.6.0] /Users/Danielmontoya/.gradle/caches/transforms-2/files-2.1/d01165e8dff366deb2bc14609fd21d47/play-services-measurement-sdk-api-17.6.0/AndroidManifest.xml:20:5-44
MERGED from [com.google.android.gms:play-services-measurement-base:17.6.0] /Users/Danielmontoya/.gradle/caches/transforms-2/files-2.1/ac54aeadedc5ec1207c1126c26906ac0/play-services-measurement-base-17.6.0/AndroidManifest.xml:5:5-44
MERGED from [com.google.android.gms:play-services-measurement-base:17.6.0] /Users/Danielmontoya/.gradle/caches/transforms-2/files-2.1/ac54aeadedc5ec1207c1126c26906ac0/play-services-measurement-base-17.6.0/AndroidManifest.xml:5:5-44
MERGED from [com.google.android.gms:play-services-stats:17.0.0] /Users/Danielmontoya/.gradle/caches/transforms-2/files-2.1/58e0cbec31665e53271999d64561b4f3/play-services-stats-17.0.0/AndroidManifest.xml:5:5-44
MERGED from [com.google.android.gms:play-services-stats:17.0.0] /Users/Danielmontoya/.gradle/caches/transforms-2/files-2.1/58e0cbec31665e53271999d64561b4f3/play-services-stats-17.0.0/AndroidManifest.xml:5:5-44
MERGED from [com.google.firebase:firebase-measurement-connector:18.0.0] /Users/Danielmontoya/.gradle/caches/transforms-2/files-2.1/52aa99b1dafefeb265871aa9c67401a0/firebase-measurement-connector-18.0.0/AndroidManifest.xml:20:5-44
MERGED from [com.google.firebase:firebase-measurement-connector:18.0.0] /Users/Danielmontoya/.gradle/caches/transforms-2/files-2.1/52aa99b1dafefeb265871aa9c67401a0/firebase-measurement-connector-18.0.0/AndroidManifest.xml:20:5-44
MERGED from [com.google.android.gms:play-services-basement:17.2.1] /Users/Danielmontoya/.gradle/caches/transforms-2/files-2.1/ca482555484431ac0083f68fd677616d/jetified-play-services-basement-17.2.1/AndroidManifest.xml:20:5-44
MERGED from [com.google.android.gms:play-services-basement:17.2.1] /Users/Danielmontoya/.gradle/caches/transforms-2/files-2.1/ca482555484431ac0083f68fd677616d/jetified-play-services-basement-17.2.1/AndroidManifest.xml:20:5-44
MERGED from [androidx.appcompat:appcompat:1.1.0-rc01] /Users/Danielmontoya/.gradle/caches/transforms-2/files-2.1/c103a8345108a27b3fe28a8325211bfa/appcompat-1.1.0-rc01/AndroidManifest.xml:20:5-22:41
MERGED from [androidx.appcompat:appcompat:1.1.0-rc01] /Users/Danielmontoya/.gradle/caches/transforms-2/files-2.1/c103a8345108a27b3fe28a8325211bfa/appcompat-1.1.0-rc01/AndroidManifest.xml:20:5-22:41
MERGED from [androidx.fragment:fragment:1.1.0] /Users/Danielmontoya/.gradle/caches/transforms-2/files-2.1/2a043d3f5fd22167e021cf30806b5be9/fragment-1.1.0/AndroidManifest.xml:20:5-22:41
MERGED from [androidx.fragment:fragment:1.1.0] /Users/Danielmontoya/.gradle/caches/transforms-2/files-2.1/2a043d3f5fd22167e021cf30806b5be9/fragment-1.1.0/AndroidManifest.xml:20:5-22:41
MERGED from [androidx.activity:activity:1.0.0] /Users/Danielmontoya/.gradle/caches/transforms-2/files-2.1/77b21b9d8f1dd2618c7e8ee5d418ed1b/activity-1.0.0/AndroidManifest.xml:20:5-22:41
MERGED from [androidx.activity:activity:1.0.0] /Users/Danielmontoya/.gradle/caches/transforms-2/files-2.1/77b21b9d8f1dd2618c7e8ee5d418ed1b/activity-1.0.0/AndroidManifest.xml:20:5-22:41
MERGED from [androidx.viewpager:viewpager:1.0.0] /Users/Danielmontoya/.gradle/caches/transforms-2/files-2.1/f333fff089a65883db4369ab04866b77/viewpager-1.0.0/AndroidManifest.xml:20:5-44
MERGED from [androidx.viewpager:viewpager:1.0.0] /Users/Danielmontoya/.gradle/caches/transforms-2/files-2.1/f333fff089a65883db4369ab04866b77/viewpager-1.0.0/AndroidManifest.xml:20:5-44
MERGED from [androidx.legacy:legacy-support-core-utils:1.0.0] /Users/Danielmontoya/.gradle/caches/transforms-2/files-2.1/be0a3d96e69806a17dd3ec618a610bb9/legacy-support-core-utils-1.0.0/AndroidManifest.xml:20:5-44
MERGED from [androidx.legacy:legacy-support-core-utils:1.0.0] /Users/Danielmontoya/.gradle/caches/transforms-2/files-2.1/be0a3d96e69806a17dd3ec618a610bb9/legacy-support-core-utils-1.0.0/AndroidManifest.xml:20:5-44
MERGED from [androidx.loader:loader:1.0.0] /Users/Danielmontoya/.gradle/caches/transforms-2/files-2.1/f4b054b692c01d60cfa1b25a7210754e/loader-1.0.0/AndroidManifest.xml:20:5-44
MERGED from [androidx.loader:loader:1.0.0] /Users/Danielmontoya/.gradle/caches/transforms-2/files-2.1/f4b054b692c01d60cfa1b25a7210754e/loader-1.0.0/AndroidManifest.xml:20:5-44
MERGED from [androidx.drawerlayout:drawerlayout:1.0.0] /Users/Danielmontoya/.gradle/caches/transforms-2/files-2.1/2dcf679aa1864a5f60f2da220706b425/drawerlayout-1.0.0/AndroidManifest.xml:20:5-44
MERGED from [androidx.drawerlayout:drawerlayout:1.0.0] /Users/Danielmontoya/.gradle/caches/transforms-2/files-2.1/2dcf679aa1864a5f60f2da220706b425/drawerlayout-1.0.0/AndroidManifest.xml:20:5-44
MERGED from [androidx.customview:customview:1.0.0] /Users/Danielmontoya/.gradle/caches/transforms-2/files-2.1/92d66a8a818f8339807e81b13dd23ea6/customview-1.0.0/AndroidManifest.xml:20:5-44
MERGED from [androidx.customview:customview:1.0.0] /Users/Danielmontoya/.gradle/caches/transforms-2/files-2.1/92d66a8a818f8339807e81b13dd23ea6/customview-1.0.0/AndroidManifest.xml:20:5-44
MERGED from [androidx.appcompat:appcompat-resources:1.1.0-rc01] /Users/Danielmontoya/.gradle/caches/transforms-2/files-2.1/b75e1a255ffd8dc089a935ae7863b4cd/appcompat-resources-1.1.0-rc01/AndroidManifest.xml:20:5-22:41
MERGED from [androidx.appcompat:appcompat-resources:1.1.0-rc01] /Users/Danielmontoya/.gradle/caches/transforms-2/files-2.1/b75e1a255ffd8dc089a935ae7863b4cd/appcompat-resources-1.1.0-rc01/AndroidManifest.xml:20:5-22:41
MERGED from [androidx.vectordrawable:vectordrawable-animated:1.1.0-rc01] /Users/Danielmontoya/.gradle/caches/transforms-2/files-2.1/c92cd362b339fac08713bf141146ec01/vectordrawable-animated-1.1.0-rc01/AndroidManifest.xml:20:5-22:41
MERGED from [androidx.vectordrawable:vectordrawable-animated:1.1.0-rc01] /Users/Danielmontoya/.gradle/caches/transforms-2/files-2.1/c92cd362b339fac08713bf141146ec01/vectordrawable-animated-1.1.0-rc01/AndroidManifest.xml:20:5-22:41
MERGED from [androidx.vectordrawable:vectordrawable:1.1.0-rc01] /Users/Danielmontoya/.gradle/caches/transforms-2/files-2.1/df3c4981f0a30932b2cabe769b0d0fcd/vectordrawable-1.1.0-rc01/AndroidManifest.xml:20:5-22:41
MERGED from [androidx.vectordrawable:vectordrawable:1.1.0-rc01] /Users/Danielmontoya/.gradle/caches/transforms-2/files-2.1/df3c4981f0a30932b2cabe769b0d0fcd/vectordrawable-1.1.0-rc01/AndroidManifest.xml:20:5-22:41
MERGED from [androidx.core:core:1.2.0] /Users/Danielmontoya/.gradle/caches/transforms-2/files-2.1/a9bb833f638dbc7f5cd8bc7f2b260f34/core-1.2.0/AndroidManifest.xml:20:5-22:41
MERGED from [androidx.core:core:1.2.0] /Users/Danielmontoya/.gradle/caches/transforms-2/files-2.1/a9bb833f638dbc7f5cd8bc7f2b260f34/core-1.2.0/AndroidManifest.xml:20:5-22:41
MERGED from [androidx.lifecycle:lifecycle-runtime:2.2.0] /Users/Danielmontoya/.gradle/caches/transforms-2/files-2.1/51f161b525b4fd1920f8d7a53d6b6ea8/lifecycle-runtime-2.2.0/AndroidManifest.xml:20:5-22:41
MERGED from [androidx.lifecycle:lifecycle-runtime:2.2.0] /Users/Danielmontoya/.gradle/caches/transforms-2/files-2.1/51f161b525b4fd1920f8d7a53d6b6ea8/lifecycle-runtime-2.2.0/AndroidManifest.xml:20:5-22:41
MERGED from [androidx.savedstate:savedstate:1.0.0] /Users/Danielmontoya/.gradle/caches/transforms-2/files-2.1/1db922c1d196d14487179d2aa1e2900e/savedstate-1.0.0/AndroidManifest.xml:20:5-22:41
MERGED from [androidx.savedstate:savedstate:1.0.0] /Users/Danielmontoya/.gradle/caches/transforms-2/files-2.1/1db922c1d196d14487179d2aa1e2900e/savedstate-1.0.0/AndroidManifest.xml:20:5-22:41
MERGED from [androidx.lifecycle:lifecycle-livedata:2.0.0] /Users/Danielmontoya/.gradle/caches/transforms-2/files-2.1/abee5b37dba13f092deef02b35959943/lifecycle-livedata-2.0.0/AndroidManifest.xml:20:5-44
MERGED from [androidx.lifecycle:lifecycle-livedata:2.0.0] /Users/Danielmontoya/.gradle/caches/transforms-2/files-2.1/abee5b37dba13f092deef02b35959943/lifecycle-livedata-2.0.0/AndroidManifest.xml:20:5-44
MERGED from [androidx.lifecycle:lifecycle-livedata-core:2.0.0] /Users/Danielmontoya/.gradle/caches/transforms-2/files-2.1/7ec00a50b8c8eec8bc982dc94cdd72df/lifecycle-livedata-core-2.0.0/AndroidManifest.xml:20:5-44
MERGED from [androidx.lifecycle:lifecycle-livedata-core:2.0.0] /Users/Danielmontoya/.gradle/caches/transforms-2/files-2.1/7ec00a50b8c8eec8bc982dc94cdd72df/lifecycle-livedata-core-2.0.0/AndroidManifest.xml:20:5-44
MERGED from [androidx.arch.core:core-runtime:2.0.0] /Users/Danielmontoya/.gradle/caches/transforms-2/files-2.1/15a45fc9279cd414e7bc73393fa60ccf/core-runtime-2.0.0/AndroidManifest.xml:20:5-44
MERGED from [androidx.arch.core:core-runtime:2.0.0] /Users/Danielmontoya/.gradle/caches/transforms-2/files-2.1/15a45fc9279cd414e7bc73393fa60ccf/core-runtime-2.0.0/AndroidManifest.xml:20:5-44
MERGED from [androidx.versionedparcelable:versionedparcelable:1.1.0] /Users/Danielmontoya/.gradle/caches/transforms-2/files-2.1/8b41debddbd50aa307dba0f241fef08b/versionedparcelable-1.1.0/AndroidManifest.xml:20:5-22:41
MERGED from [androidx.versionedparcelable:versionedparcelable:1.1.0] /Users/Danielmontoya/.gradle/caches/transforms-2/files-2.1/8b41debddbd50aa307dba0f241fef08b/versionedparcelable-1.1.0/AndroidManifest.xml:20:5-22:41
MERGED from [com.google.firebase:firebase-components:16.0.0] /Users/Danielmontoya/.gradle/caches/transforms-2/files-2.1/34a8b95dabfb0105f099561d268e68d6/jetified-firebase-components-16.0.0/AndroidManifest.xml:19:5-21:41
MERGED from [com.google.firebase:firebase-components:16.0.0] /Users/Danielmontoya/.gradle/caches/transforms-2/files-2.1/34a8b95dabfb0105f099561d268e68d6/jetified-firebase-components-16.0.0/AndroidManifest.xml:19:5-21:41
MERGED from [androidx.localbroadcastmanager:localbroadcastmanager:1.0.0] /Users/Danielmontoya/.gradle/caches/transforms-2/files-2.1/03e26697d0a6e1eb3912dab2156c8fb7/localbroadcastmanager-1.0.0/AndroidManifest.xml:20:5-44
MERGED from [androidx.localbroadcastmanager:localbroadcastmanager:1.0.0] /Users/Danielmontoya/.gradle/caches/transforms-2/files-2.1/03e26697d0a6e1eb3912dab2156c8fb7/localbroadcastmanager-1.0.0/AndroidManifest.xml:20:5-44
MERGED from [androidx.lifecycle:lifecycle-viewmodel:2.1.0] /Users/Danielmontoya/.gradle/caches/transforms-2/files-2.1/3c4344c97194b317881817238bfc5913/lifecycle-viewmodel-2.1.0/AndroidManifest.xml:20:5-44
MERGED from [androidx.lifecycle:lifecycle-viewmodel:2.1.0] /Users/Danielmontoya/.gradle/caches/transforms-2/files-2.1/3c4344c97194b317881817238bfc5913/lifecycle-viewmodel-2.1.0/AndroidManifest.xml:20:5-44
MERGED from [androidx.cursoradapter:cursoradapter:1.0.0] /Users/Danielmontoya/.gradle/caches/transforms-2/files-2.1/6dadf666a149784310abb41a35b094dd/cursoradapter-1.0.0/AndroidManifest.xml:20:5-44
MERGED from [androidx.cursoradapter:cursoradapter:1.0.0] /Users/Danielmontoya/.gradle/caches/transforms-2/files-2.1/6dadf666a149784310abb41a35b094dd/cursoradapter-1.0.0/AndroidManifest.xml:20:5-44
MERGED from [androidx.documentfile:documentfile:1.0.0] /Users/Danielmontoya/.gradle/caches/transforms-2/files-2.1/d3eb63bf853c789a48d650b747031fff/documentfile-1.0.0/AndroidManifest.xml:20:5-44
MERGED from [androidx.documentfile:documentfile:1.0.0] /Users/Danielmontoya/.gradle/caches/transforms-2/files-2.1/d3eb63bf853c789a48d650b747031fff/documentfile-1.0.0/AndroidManifest.xml:20:5-44
MERGED from [androidx.print:print:1.0.0] /Users/Danielmontoya/.gradle/caches/transforms-2/files-2.1/a44cec94aaed465518ad794d0c43f508/print-1.0.0/AndroidManifest.xml:20:5-44
MERGED from [androidx.print:print:1.0.0] /Users/Danielmontoya/.gradle/caches/transforms-2/files-2.1/a44cec94aaed465518ad794d0c43f508/print-1.0.0/AndroidManifest.xml:20:5-44
MERGED from [androidx.interpolator:interpolator:1.0.0] /Users/Danielmontoya/.gradle/caches/transforms-2/files-2.1/742ed95bf955082c4e04b9881ddf75f5/interpolator-1.0.0/AndroidManifest.xml:20:5-44
MERGED from [androidx.interpolator:interpolator:1.0.0] /Users/Danielmontoya/.gradle/caches/transforms-2/files-2.1/742ed95bf955082c4e04b9881ddf75f5/interpolator-1.0.0/AndroidManifest.xml:20:5-44
MERGED from [com.google.firebase:protolite-well-known-types:17.1.0] /Users/Danielmontoya/.gradle/caches/transforms-2/files-2.1/9c0da2eddbdf31165e08e7f14ec09da9/protolite-well-known-types-17.1.0/AndroidManifest.xml:7:5-9:41
MERGED from [com.google.firebase:protolite-well-known-types:17.1.0] /Users/Danielmontoya/.gradle/caches/transforms-2/files-2.1/9c0da2eddbdf31165e08e7f14ec09da9/protolite-well-known-types-17.1.0/AndroidManifest.xml:7:5-9:41
MERGED from [io.grpc:grpc-android:1.28.0] /Users/Danielmontoya/.gradle/caches/transforms-2/files-2.1/4526a9c01fabd3735f7a21ffe9548f90/grpc-android-1.28.0/AndroidManifest.xml:7:5-9:41
MERGED from [io.grpc:grpc-android:1.28.0] /Users/Danielmontoya/.gradle/caches/transforms-2/files-2.1/4526a9c01fabd3735f7a21ffe9548f90/grpc-android-1.28.0/AndroidManifest.xml:7:5-9:41
INJECTED from /Users/Danielmontoya/Documents/Semestre 11/Construccion de Aplicaciones Moviles/flutter/android/app/src/debug/AndroidManifest.xml
INJECTED from /Users/Danielmontoya/Documents/Semestre 11/Construccion de Aplicaciones Moviles/flutter/android/app/src/debug/AndroidManifest.xml
	android:targetSdkVersion
		INJECTED from /Users/Danielmontoya/Documents/Semestre 11/Construccion de Aplicaciones Moviles/flutter/android/app/src/main/AndroidManifest.xml
		INJECTED from /Users/Danielmontoya/Documents/Semestre 11/Construccion de Aplicaciones Moviles/flutter/android/app/src/debug/AndroidManifest.xml
	android:minSdkVersion
		INJECTED from /Users/Danielmontoya/Documents/Semestre 11/Construccion de Aplicaciones Moviles/flutter/android/app/src/main/AndroidManifest.xml
		INJECTED from /Users/Danielmontoya/Documents/Semestre 11/Construccion de Aplicaciones Moviles/flutter/android/app/src/debug/AndroidManifest.xml
uses-permission#android.permission.INTERNET
ADDED from /Users/Danielmontoya/Documents/Semestre 11/Construccion de Aplicaciones Moviles/flutter/android/app/src/debug/AndroidManifest.xml:6:5-66
MERGED from [com.google.firebase:firebase-firestore:21.7.1] /Users/Danielmontoya/.gradle/caches/transforms-2/files-2.1/caacb1f395c8c4d9a4be8df39ac4dfc7/jetified-firebase-firestore-21.7.1/AndroidManifest.xml:14:5-67
MERGED from [com.google.firebase:firebase-firestore:21.7.1] /Users/Danielmontoya/.gradle/caches/transforms-2/files-2.1/caacb1f395c8c4d9a4be8df39ac4dfc7/jetified-firebase-firestore-21.7.1/AndroidManifest.xml:14:5-67
MERGED from [com.google.android.gms:play-services-measurement:17.6.0] /Users/Danielmontoya/.gradle/caches/transforms-2/files-2.1/4445fb88bd03a7850a9d8e067866e333/play-services-measurement-17.6.0/AndroidManifest.xml:23:5-67
MERGED from [com.google.android.gms:play-services-measurement:17.6.0] /Users/Danielmontoya/.gradle/caches/transforms-2/files-2.1/4445fb88bd03a7850a9d8e067866e333/play-services-measurement-17.6.0/AndroidManifest.xml:23:5-67
MERGED from [com.google.android.gms:play-services-measurement-api:17.6.0] /Users/Danielmontoya/.gradle/caches/transforms-2/files-2.1/87892edabe3940311c57274d2e3f6cb3/play-services-measurement-api-17.6.0/AndroidManifest.xml:22:5-67
MERGED from [com.google.android.gms:play-services-measurement-api:17.6.0] /Users/Danielmontoya/.gradle/caches/transforms-2/files-2.1/87892edabe3940311c57274d2e3f6cb3/play-services-measurement-api-17.6.0/AndroidManifest.xml:22:5-67
MERGED from [com.google.firebase:firebase-installations:16.3.2] /Users/Danielmontoya/.gradle/caches/transforms-2/files-2.1/ff2efd0259911673380f14d147be15bb/firebase-installations-16.3.2/AndroidManifest.xml:11:5-67
MERGED from [com.google.firebase:firebase-installations:16.3.2] /Users/Danielmontoya/.gradle/caches/transforms-2/files-2.1/ff2efd0259911673380f14d147be15bb/firebase-installations-16.3.2/AndroidManifest.xml:11:5-67
MERGED from [com.google.android.gms:play-services-measurement-impl:17.6.0] /Users/Danielmontoya/.gradle/caches/transforms-2/files-2.1/d54db12e57d339d8c9f572e7a66162ff/play-services-measurement-impl-17.6.0/AndroidManifest.xml:23:5-67
MERGED from [com.google.android.gms:play-services-measurement-impl:17.6.0] /Users/Danielmontoya/.gradle/caches/transforms-2/files-2.1/d54db12e57d339d8c9f572e7a66162ff/play-services-measurement-impl-17.6.0/AndroidManifest.xml:23:5-67
MERGED from [com.google.android.gms:play-services-measurement-sdk-api:17.6.0] /Users/Danielmontoya/.gradle/caches/transforms-2/files-2.1/d01165e8dff366deb2bc14609fd21d47/play-services-measurement-sdk-api-17.6.0/AndroidManifest.xml:23:5-67
MERGED from [com.google.android.gms:play-services-measurement-sdk-api:17.6.0] /Users/Danielmontoya/.gradle/caches/transforms-2/files-2.1/d01165e8dff366deb2bc14609fd21d47/play-services-measurement-sdk-api-17.6.0/AndroidManifest.xml:23:5-67
	android:name
		ADDED from /Users/Danielmontoya/Documents/Semestre 11/Construccion de Aplicaciones Moviles/flutter/android/app/src/debug/AndroidManifest.xml:6:22-64
uses-permission#android.permission.USE_BIOMETRIC
ADDED from /Users/Danielmontoya/Documents/Semestre 11/Construccion de Aplicaciones Moviles/flutter/android/app/src/debug/AndroidManifest.xml:7:5-71
MERGED from [androidx.biometric:biometric:1.0.0-beta01] /Users/Danielmontoya/.gradle/caches/transforms-2/files-2.1/1c96c65abaeb9f699890e43bce0e00c0/biometric-1.0.0-beta01/AndroidManifest.xml:24:5-72
MERGED from [androidx.biometric:biometric:1.0.0-beta01] /Users/Danielmontoya/.gradle/caches/transforms-2/files-2.1/1c96c65abaeb9f699890e43bce0e00c0/biometric-1.0.0-beta01/AndroidManifest.xml:24:5-72
	android:name
		ADDED from /Users/Danielmontoya/Documents/Semestre 11/Construccion de Aplicaciones Moviles/flutter/android/app/src/debug/AndroidManifest.xml:7:22-69
activity#io.flutter.plugins.urllauncher.WebViewActivity
ADDED from [:url_launcher] /Users/Danielmontoya/Documents/Semestre 11/Construccion de Aplicaciones Moviles/flutter/build/url_launcher/intermediates/library_manifest/debug/AndroidManifest.xml:8:9-11:74
	android:exported
		ADDED from [:url_launcher] /Users/Danielmontoya/Documents/Semestre 11/Construccion de Aplicaciones Moviles/flutter/build/url_launcher/intermediates/library_manifest/debug/AndroidManifest.xml:10:13-37
	android:theme
		ADDED from [:url_launcher] /Users/Danielmontoya/Documents/Semestre 11/Construccion de Aplicaciones Moviles/flutter/build/url_launcher/intermediates/library_manifest/debug/AndroidManifest.xml:11:13-71
	android:name
		ADDED from [:url_launcher] /Users/Danielmontoya/Documents/Semestre 11/Construccion de Aplicaciones Moviles/flutter/build/url_launcher/intermediates/library_manifest/debug/AndroidManifest.xml:9:13-74
service#com.google.firebase.components.ComponentDiscoveryService
ADDED from [:cloud_firestore] /Users/Danielmontoya/Documents/Semestre 11/Construccion de Aplicaciones Moviles/flutter/build/cloud_firestore/intermediates/library_manifest/debug/AndroidManifest.xml:8:9-12:19
MERGED from [:firebase_auth] /Users/Danielmontoya/Documents/Semestre 11/Construccion de Aplicaciones Moviles/flutter/build/firebase_auth/intermediates/library_manifest/debug/AndroidManifest.xml:8:9-12:19
MERGED from [:firebase_auth] /Users/Danielmontoya/Documents/Semestre 11/Construccion de Aplicaciones Moviles/flutter/build/firebase_auth/intermediates/library_manifest/debug/AndroidManifest.xml:8:9-12:19
MERGED from [:firebase_core] /Users/Danielmontoya/Documents/Semestre 11/Construccion de Aplicaciones Moviles/flutter/build/firebase_core/intermediates/library_manifest/debug/AndroidManifest.xml:8:9-12:19
MERGED from [:firebase_core] /Users/Danielmontoya/Documents/Semestre 11/Construccion de Aplicaciones Moviles/flutter/build/firebase_core/intermediates/library_manifest/debug/AndroidManifest.xml:8:9-12:19
MERGED from [com.google.firebase:firebase-firestore:21.7.1] /Users/Danielmontoya/.gradle/caches/transforms-2/files-2.1/caacb1f395c8c4d9a4be8df39ac4dfc7/jetified-firebase-firestore-21.7.1/AndroidManifest.xml:17:9-23:19
MERGED from [com.google.firebase:firebase-firestore:21.7.1] /Users/Danielmontoya/.gradle/caches/transforms-2/files-2.1/caacb1f395c8c4d9a4be8df39ac4dfc7/jetified-firebase-firestore-21.7.1/AndroidManifest.xml:17:9-23:19
MERGED from [com.google.firebase:firebase-auth:19.4.0] /Users/Danielmontoya/.gradle/caches/transforms-2/files-2.1/abba2042bd3143f77d0e39fd1bf924cc/firebase-auth-19.4.0/AndroidManifest.xml:33:9-39:19
MERGED from [com.google.firebase:firebase-auth:19.4.0] /Users/Danielmontoya/.gradle/caches/transforms-2/files-2.1/abba2042bd3143f77d0e39fd1bf924cc/firebase-auth-19.4.0/AndroidManifest.xml:33:9-39:19
MERGED from [com.google.android.gms:play-services-measurement-api:17.6.0] /Users/Danielmontoya/.gradle/caches/transforms-2/files-2.1/87892edabe3940311c57274d2e3f6cb3/play-services-measurement-api-17.6.0/AndroidManifest.xml:27:9-33:19
MERGED from [com.google.android.gms:play-services-measurement-api:17.6.0] /Users/Danielmontoya/.gradle/caches/transforms-2/files-2.1/87892edabe3940311c57274d2e3f6cb3/play-services-measurement-api-17.6.0/AndroidManifest.xml:27:9-33:19
MERGED from [com.google.firebase:firebase-installations:16.3.2] /Users/Danielmontoya/.gradle/caches/transforms-2/files-2.1/ff2efd0259911673380f14d147be15bb/firebase-installations-16.3.2/AndroidManifest.xml:14:9-20:19
MERGED from [com.google.firebase:firebase-installations:16.3.2] /Users/Danielmontoya/.gradle/caches/transforms-2/files-2.1/ff2efd0259911673380f14d147be15bb/firebase-installations-16.3.2/AndroidManifest.xml:14:9-20:19
MERGED from [com.google.firebase:firebase-common:19.3.1] /Users/Danielmontoya/.gradle/caches/transforms-2/files-2.1/8c6c0b73e3f47be562c7ae59a2c0f750/jetified-firebase-common-19.3.1/AndroidManifest.xml:33:9-37:35
MERGED from [com.google.firebase:firebase-common:19.3.1] /Users/Danielmontoya/.gradle/caches/transforms-2/files-2.1/8c6c0b73e3f47be562c7ae59a2c0f750/jetified-firebase-common-19.3.1/AndroidManifest.xml:33:9-37:35
	android:exported
		ADDED from [com.google.firebase:firebase-firestore:21.7.1] /Users/Danielmontoya/.gradle/caches/transforms-2/files-2.1/caacb1f395c8c4d9a4be8df39ac4dfc7/jetified-firebase-firestore-21.7.1/AndroidManifest.xml:19:13-37
	tools:targetApi
		ADDED from [com.google.firebase:firebase-common:19.3.1] /Users/Danielmontoya/.gradle/caches/transforms-2/files-2.1/8c6c0b73e3f47be562c7ae59a2c0f750/jetified-firebase-common-19.3.1/AndroidManifest.xml:37:13-32
	android:directBootAware
		ADDED from [com.google.firebase:firebase-common:19.3.1] /Users/Danielmontoya/.gradle/caches/transforms-2/files-2.1/8c6c0b73e3f47be562c7ae59a2c0f750/jetified-firebase-common-19.3.1/AndroidManifest.xml:35:13-43
	android:name
		ADDED from [:cloud_firestore] /Users/Danielmontoya/Documents/Semestre 11/Construccion de Aplicaciones Moviles/flutter/build/cloud_firestore/intermediates/library_manifest/debug/AndroidManifest.xml:8:18-89
meta-data#com.google.firebase.components:io.flutter.plugins.firebase.firestore.FlutterFirebaseFirestoreRegistrar
ADDED from [:cloud_firestore] /Users/Danielmontoya/Documents/Semestre 11/Construccion de Aplicaciones Moviles/flutter/build/cloud_firestore/intermediates/library_manifest/debug/AndroidManifest.xml:9:13-11:85
	android:value
		ADDED from [:cloud_firestore] /Users/Danielmontoya/Documents/Semestre 11/Construccion de Aplicaciones Moviles/flutter/build/cloud_firestore/intermediates/library_manifest/debug/AndroidManifest.xml:11:17-82
	android:name
		ADDED from [:cloud_firestore] /Users/Danielmontoya/Documents/Semestre 11/Construccion de Aplicaciones Moviles/flutter/build/cloud_firestore/intermediates/library_manifest/debug/AndroidManifest.xml:10:17-134
meta-data#com.google.firebase.components:io.flutter.plugins.firebase.auth.FlutterFirebaseAuthRegistrar
ADDED from [:firebase_auth] /Users/Danielmontoya/Documents/Semestre 11/Construccion de Aplicaciones Moviles/flutter/build/firebase_auth/intermediates/library_manifest/debug/AndroidManifest.xml:9:13-11:85
	android:value
		ADDED from [:firebase_auth] /Users/Danielmontoya/Documents/Semestre 11/Construccion de Aplicaciones Moviles/flutter/build/firebase_auth/intermediates/library_manifest/debug/AndroidManifest.xml:11:17-82
	android:name
		ADDED from [:firebase_auth] /Users/Danielmontoya/Documents/Semestre 11/Construccion de Aplicaciones Moviles/flutter/build/firebase_auth/intermediates/library_manifest/debug/AndroidManifest.xml:10:17-124
meta-data#com.google.firebase.components:io.flutter.plugins.firebase.core.FlutterFirebaseCoreRegistrar
ADDED from [:firebase_core] /Users/Danielmontoya/Documents/Semestre 11/Construccion de Aplicaciones Moviles/flutter/build/firebase_core/intermediates/library_manifest/debug/AndroidManifest.xml:9:13-11:85
	android:value
		ADDED from [:firebase_core] /Users/Danielmontoya/Documents/Semestre 11/Construccion de Aplicaciones Moviles/flutter/build/firebase_core/intermediates/library_manifest/debug/AndroidManifest.xml:11:17-82
	android:name
		ADDED from [:firebase_core] /Users/Danielmontoya/Documents/Semestre 11/Construccion de Aplicaciones Moviles/flutter/build/firebase_core/intermediates/library_manifest/debug/AndroidManifest.xml:10:17-124
uses-permission#android.permission.ACCESS_NETWORK_STATE
ADDED from [com.google.firebase:firebase-firestore:21.7.1] /Users/Danielmontoya/.gradle/caches/transforms-2/files-2.1/caacb1f395c8c4d9a4be8df39ac4dfc7/jetified-firebase-firestore-21.7.1/AndroidManifest.xml:13:5-79
MERGED from [com.google.android.gms:play-services-measurement:17.6.0] /Users/Danielmontoya/.gradle/caches/transforms-2/files-2.1/4445fb88bd03a7850a9d8e067866e333/play-services-measurement-17.6.0/AndroidManifest.xml:24:5-79
MERGED from [com.google.android.gms:play-services-measurement:17.6.0] /Users/Danielmontoya/.gradle/caches/transforms-2/files-2.1/4445fb88bd03a7850a9d8e067866e333/play-services-measurement-17.6.0/AndroidManifest.xml:24:5-79
MERGED from [com.google.android.gms:play-services-measurement-api:17.6.0] /Users/Danielmontoya/.gradle/caches/transforms-2/files-2.1/87892edabe3940311c57274d2e3f6cb3/play-services-measurement-api-17.6.0/AndroidManifest.xml:23:5-79
MERGED from [com.google.android.gms:play-services-measurement-api:17.6.0] /Users/Danielmontoya/.gradle/caches/transforms-2/files-2.1/87892edabe3940311c57274d2e3f6cb3/play-services-measurement-api-17.6.0/AndroidManifest.xml:23:5-79
MERGED from [com.google.firebase:firebase-installations:16.3.2] /Users/Danielmontoya/.gradle/caches/transforms-2/files-2.1/ff2efd0259911673380f14d147be15bb/firebase-installations-16.3.2/AndroidManifest.xml:10:5-79
MERGED from [com.google.firebase:firebase-installations:16.3.2] /Users/Danielmontoya/.gradle/caches/transforms-2/files-2.1/ff2efd0259911673380f14d147be15bb/firebase-installations-16.3.2/AndroidManifest.xml:10:5-79
MERGED from [com.google.android.gms:play-services-measurement-impl:17.6.0] /Users/Danielmontoya/.gradle/caches/transforms-2/files-2.1/d54db12e57d339d8c9f572e7a66162ff/play-services-measurement-impl-17.6.0/AndroidManifest.xml:24:5-79
MERGED from [com.google.android.gms:play-services-measurement-impl:17.6.0] /Users/Danielmontoya/.gradle/caches/transforms-2/files-2.1/d54db12e57d339d8c9f572e7a66162ff/play-services-measurement-impl-17.6.0/AndroidManifest.xml:24:5-79
MERGED from [com.google.android.gms:play-services-measurement-sdk-api:17.6.0] /Users/Danielmontoya/.gradle/caches/transforms-2/files-2.1/d01165e8dff366deb2bc14609fd21d47/play-services-measurement-sdk-api-17.6.0/AndroidManifest.xml:24:5-79
MERGED from [com.google.android.gms:play-services-measurement-sdk-api:17.6.0] /Users/Danielmontoya/.gradle/caches/transforms-2/files-2.1/d01165e8dff366deb2bc14609fd21d47/play-services-measurement-sdk-api-17.6.0/AndroidManifest.xml:24:5-79
MERGED from [io.grpc:grpc-android:1.28.0] /Users/Danielmontoya/.gradle/caches/transforms-2/files-2.1/4526a9c01fabd3735f7a21ffe9548f90/grpc-android-1.28.0/AndroidManifest.xml:11:5-79
MERGED from [io.grpc:grpc-android:1.28.0] /Users/Danielmontoya/.gradle/caches/transforms-2/files-2.1/4526a9c01fabd3735f7a21ffe9548f90/grpc-android-1.28.0/AndroidManifest.xml:11:5-79
	android:name
		ADDED from [com.google.firebase:firebase-firestore:21.7.1] /Users/Danielmontoya/.gradle/caches/transforms-2/files-2.1/caacb1f395c8c4d9a4be8df39ac4dfc7/jetified-firebase-firestore-21.7.1/AndroidManifest.xml:13:22-76
meta-data#com.google.firebase.components:com.google.firebase.firestore.FirestoreRegistrar
ADDED from [com.google.firebase:firebase-firestore:21.7.1] /Users/Danielmontoya/.gradle/caches/transforms-2/files-2.1/caacb1f395c8c4d9a4be8df39ac4dfc7/jetified-firebase-firestore-21.7.1/AndroidManifest.xml:20:13-22:85
	android:value
		ADDED from [com.google.firebase:firebase-firestore:21.7.1] /Users/Danielmontoya/.gradle/caches/transforms-2/files-2.1/caacb1f395c8c4d9a4be8df39ac4dfc7/jetified-firebase-firestore-21.7.1/AndroidManifest.xml:22:17-82
	android:name
		ADDED from [com.google.firebase:firebase-firestore:21.7.1] /Users/Danielmontoya/.gradle/caches/transforms-2/files-2.1/caacb1f395c8c4d9a4be8df39ac4dfc7/jetified-firebase-firestore-21.7.1/AndroidManifest.xml:21:17-111
activity#com.google.firebase.auth.internal.FederatedSignInActivity
ADDED from [com.google.firebase:firebase-auth:19.4.0] /Users/Danielmontoya/.gradle/caches/transforms-2/files-2.1/abba2042bd3143f77d0e39fd1bf924cc/firebase-auth-19.4.0/AndroidManifest.xml:24:9-31:50
	android:excludeFromRecents
		ADDED from [com.google.firebase:firebase-auth:19.4.0] /Users/Danielmontoya/.gradle/caches/transforms-2/files-2.1/abba2042bd3143f77d0e39fd1bf924cc/firebase-auth-19.4.0/AndroidManifest.xml:26:13-46
	android:launchMode
		ADDED from [com.google.firebase:firebase-auth:19.4.0] /Users/Danielmontoya/.gradle/caches/transforms-2/files-2.1/abba2042bd3143f77d0e39fd1bf924cc/firebase-auth-19.4.0/AndroidManifest.xml:28:13-44
	android:exported
		ADDED from [com.google.firebase:firebase-auth:19.4.0] /Users/Danielmontoya/.gradle/caches/transforms-2/files-2.1/abba2042bd3143f77d0e39fd1bf924cc/firebase-auth-19.4.0/AndroidManifest.xml:27:13-36
	android:permission
		ADDED from [com.google.firebase:firebase-auth:19.4.0] /Users/Danielmontoya/.gradle/caches/transforms-2/files-2.1/abba2042bd3143f77d0e39fd1bf924cc/firebase-auth-19.4.0/AndroidManifest.xml:29:13-102
	android:theme
		ADDED from [com.google.firebase:firebase-auth:19.4.0] /Users/Danielmontoya/.gradle/caches/transforms-2/files-2.1/abba2042bd3143f77d0e39fd1bf924cc/firebase-auth-19.4.0/AndroidManifest.xml:30:13-72
	tools:replace
		ADDED from [com.google.firebase:firebase-auth:19.4.0] /Users/Danielmontoya/.gradle/caches/transforms-2/files-2.1/abba2042bd3143f77d0e39fd1bf924cc/firebase-auth-19.4.0/AndroidManifest.xml:31:13-47
	android:name
		ADDED from [com.google.firebase:firebase-auth:19.4.0] /Users/Danielmontoya/.gradle/caches/transforms-2/files-2.1/abba2042bd3143f77d0e39fd1bf924cc/firebase-auth-19.4.0/AndroidManifest.xml:25:13-85
meta-data#com.google.firebase.components:com.google.firebase.auth.FirebaseAuthRegistrar
ADDED from [com.google.firebase:firebase-auth:19.4.0] /Users/Danielmontoya/.gradle/caches/transforms-2/files-2.1/abba2042bd3143f77d0e39fd1bf924cc/firebase-auth-19.4.0/AndroidManifest.xml:36:13-38:85
	android:value
		ADDED from [com.google.firebase:firebase-auth:19.4.0] /Users/Danielmontoya/.gradle/caches/transforms-2/files-2.1/abba2042bd3143f77d0e39fd1bf924cc/firebase-auth-19.4.0/AndroidManifest.xml:38:17-82
	android:name
		ADDED from [com.google.firebase:firebase-auth:19.4.0] /Users/Danielmontoya/.gradle/caches/transforms-2/files-2.1/abba2042bd3143f77d0e39fd1bf924cc/firebase-auth-19.4.0/AndroidManifest.xml:37:17-109
activity#com.google.android.gms.common.api.GoogleApiActivity
ADDED from [com.google.android.gms:play-services-base:17.2.1] /Users/Danielmontoya/.gradle/caches/transforms-2/files-2.1/c7bf2bf666df0d106e3c35a59a3c937c/play-services-base-17.2.1/AndroidManifest.xml:23:9-26:75
	android:exported
		ADDED from [com.google.android.gms:play-services-base:17.2.1] /Users/Danielmontoya/.gradle/caches/transforms-2/files-2.1/c7bf2bf666df0d106e3c35a59a3c937c/play-services-base-17.2.1/AndroidManifest.xml:25:13-37
	android:theme
		ADDED from [com.google.android.gms:play-services-base:17.2.1] /Users/Danielmontoya/.gradle/caches/transforms-2/files-2.1/c7bf2bf666df0d106e3c35a59a3c937c/play-services-base-17.2.1/AndroidManifest.xml:26:13-72
	android:name
		ADDED from [com.google.android.gms:play-services-base:17.2.1] /Users/Danielmontoya/.gradle/caches/transforms-2/files-2.1/c7bf2bf666df0d106e3c35a59a3c937c/play-services-base-17.2.1/AndroidManifest.xml:24:13-79
uses-permission#android.permission.USE_FINGERPRINT
ADDED from [androidx.biometric:biometric:1.0.0-beta01] /Users/Danielmontoya/.gradle/caches/transforms-2/files-2.1/1c96c65abaeb9f699890e43bce0e00c0/biometric-1.0.0-beta01/AndroidManifest.xml:25:5-74
	android:name
		ADDED from [androidx.biometric:biometric:1.0.0-beta01] /Users/Danielmontoya/.gradle/caches/transforms-2/files-2.1/1c96c65abaeb9f699890e43bce0e00c0/biometric-1.0.0-beta01/AndroidManifest.xml:25:22-71
activity#androidx.biometric.DeviceCredentialHandlerActivity
ADDED from [androidx.biometric:biometric:1.0.0-beta01] /Users/Danielmontoya/.gradle/caches/transforms-2/files-2.1/1c96c65abaeb9f699890e43bce0e00c0/biometric-1.0.0-beta01/AndroidManifest.xml:28:9-30:67
	android:theme
		ADDED from [androidx.biometric:biometric:1.0.0-beta01] /Users/Danielmontoya/.gradle/caches/transforms-2/files-2.1/1c96c65abaeb9f699890e43bce0e00c0/biometric-1.0.0-beta01/AndroidManifest.xml:30:13-64
	android:name
		ADDED from [androidx.biometric:biometric:1.0.0-beta01] /Users/Danielmontoya/.gradle/caches/transforms-2/files-2.1/1c96c65abaeb9f699890e43bce0e00c0/biometric-1.0.0-beta01/AndroidManifest.xml:29:13-78
uses-permission#android.permission.WAKE_LOCK
ADDED from [com.google.android.gms:play-services-measurement:17.6.0] /Users/Danielmontoya/.gradle/caches/transforms-2/files-2.1/4445fb88bd03a7850a9d8e067866e333/play-services-measurement-17.6.0/AndroidManifest.xml:25:5-68
MERGED from [com.google.android.gms:play-services-measurement-api:17.6.0] /Users/Danielmontoya/.gradle/caches/transforms-2/files-2.1/87892edabe3940311c57274d2e3f6cb3/play-services-measurement-api-17.6.0/AndroidManifest.xml:24:5-68
MERGED from [com.google.android.gms:play-services-measurement-api:17.6.0] /Users/Danielmontoya/.gradle/caches/transforms-2/files-2.1/87892edabe3940311c57274d2e3f6cb3/play-services-measurement-api-17.6.0/AndroidManifest.xml:24:5-68
MERGED from [com.google.android.gms:play-services-measurement-impl:17.6.0] /Users/Danielmontoya/.gradle/caches/transforms-2/files-2.1/d54db12e57d339d8c9f572e7a66162ff/play-services-measurement-impl-17.6.0/AndroidManifest.xml:25:5-68
MERGED from [com.google.android.gms:play-services-measurement-impl:17.6.0] /Users/Danielmontoya/.gradle/caches/transforms-2/files-2.1/d54db12e57d339d8c9f572e7a66162ff/play-services-measurement-impl-17.6.0/AndroidManifest.xml:25:5-68
MERGED from [com.google.android.gms:play-services-measurement-sdk-api:17.6.0] /Users/Danielmontoya/.gradle/caches/transforms-2/files-2.1/d01165e8dff366deb2bc14609fd21d47/play-services-measurement-sdk-api-17.6.0/AndroidManifest.xml:25:5-68
MERGED from [com.google.android.gms:play-services-measurement-sdk-api:17.6.0] /Users/Danielmontoya/.gradle/caches/transforms-2/files-2.1/d01165e8dff366deb2bc14609fd21d47/play-services-measurement-sdk-api-17.6.0/AndroidManifest.xml:25:5-68
	android:name
		ADDED from [com.google.android.gms:play-services-measurement:17.6.0] /Users/Danielmontoya/.gradle/caches/transforms-2/files-2.1/4445fb88bd03a7850a9d8e067866e333/play-services-measurement-17.6.0/AndroidManifest.xml:25:22-65
uses-permission#com.google.android.finsky.permission.BIND_GET_INSTALL_REFERRER_SERVICE
ADDED from [com.google.android.gms:play-services-measurement:17.6.0] /Users/Danielmontoya/.gradle/caches/transforms-2/files-2.1/4445fb88bd03a7850a9d8e067866e333/play-services-measurement-17.6.0/AndroidManifest.xml:26:5-110
MERGED from [com.google.android.gms:play-services-measurement-impl:17.6.0] /Users/Danielmontoya/.gradle/caches/transforms-2/files-2.1/d54db12e57d339d8c9f572e7a66162ff/play-services-measurement-impl-17.6.0/AndroidManifest.xml:26:5-110
MERGED from [com.google.android.gms:play-services-measurement-impl:17.6.0] /Users/Danielmontoya/.gradle/caches/transforms-2/files-2.1/d54db12e57d339d8c9f572e7a66162ff/play-services-measurement-impl-17.6.0/AndroidManifest.xml:26:5-110
	android:name
		ADDED from [com.google.android.gms:play-services-measurement:17.6.0] /Users/Danielmontoya/.gradle/caches/transforms-2/files-2.1/4445fb88bd03a7850a9d8e067866e333/play-services-measurement-17.6.0/AndroidManifest.xml:26:22-107
receiver#com.google.android.gms.measurement.AppMeasurementReceiver
ADDED from [com.google.android.gms:play-services-measurement:17.6.0] /Users/Danielmontoya/.gradle/caches/transforms-2/files-2.1/4445fb88bd03a7850a9d8e067866e333/play-services-measurement-17.6.0/AndroidManifest.xml:29:9-33:20
	android:enabled
		ADDED from [com.google.android.gms:play-services-measurement:17.6.0] /Users/Danielmontoya/.gradle/caches/transforms-2/files-2.1/4445fb88bd03a7850a9d8e067866e333/play-services-measurement-17.6.0/AndroidManifest.xml:31:13-35
	android:exported
		ADDED from [com.google.android.gms:play-services-measurement:17.6.0] /Users/Danielmontoya/.gradle/caches/transforms-2/files-2.1/4445fb88bd03a7850a9d8e067866e333/play-services-measurement-17.6.0/AndroidManifest.xml:32:13-37
	android:name
		ADDED from [com.google.android.gms:play-services-measurement:17.6.0] /Users/Danielmontoya/.gradle/caches/transforms-2/files-2.1/4445fb88bd03a7850a9d8e067866e333/play-services-measurement-17.6.0/AndroidManifest.xml:30:13-85
service#com.google.android.gms.measurement.AppMeasurementService
ADDED from [com.google.android.gms:play-services-measurement:17.6.0] /Users/Danielmontoya/.gradle/caches/transforms-2/files-2.1/4445fb88bd03a7850a9d8e067866e333/play-services-measurement-17.6.0/AndroidManifest.xml:35:9-38:40
	android:enabled
		ADDED from [com.google.android.gms:play-services-measurement:17.6.0] /Users/Danielmontoya/.gradle/caches/transforms-2/files-2.1/4445fb88bd03a7850a9d8e067866e333/play-services-measurement-17.6.0/AndroidManifest.xml:37:13-35
	android:exported
		ADDED from [com.google.android.gms:play-services-measurement:17.6.0] /Users/Danielmontoya/.gradle/caches/transforms-2/files-2.1/4445fb88bd03a7850a9d8e067866e333/play-services-measurement-17.6.0/AndroidManifest.xml:38:13-37
	android:name
		ADDED from [com.google.android.gms:play-services-measurement:17.6.0] /Users/Danielmontoya/.gradle/caches/transforms-2/files-2.1/4445fb88bd03a7850a9d8e067866e333/play-services-measurement-17.6.0/AndroidManifest.xml:36:13-84
service#com.google.android.gms.measurement.AppMeasurementJobService
ADDED from [com.google.android.gms:play-services-measurement:17.6.0] /Users/Danielmontoya/.gradle/caches/transforms-2/files-2.1/4445fb88bd03a7850a9d8e067866e333/play-services-measurement-17.6.0/AndroidManifest.xml:39:9-43:72
	android:enabled
		ADDED from [com.google.android.gms:play-services-measurement:17.6.0] /Users/Danielmontoya/.gradle/caches/transforms-2/files-2.1/4445fb88bd03a7850a9d8e067866e333/play-services-measurement-17.6.0/AndroidManifest.xml:41:13-35
	android:exported
		ADDED from [com.google.android.gms:play-services-measurement:17.6.0] /Users/Danielmontoya/.gradle/caches/transforms-2/files-2.1/4445fb88bd03a7850a9d8e067866e333/play-services-measurement-17.6.0/AndroidManifest.xml:42:13-37
	android:permission
		ADDED from [com.google.android.gms:play-services-measurement:17.6.0] /Users/Danielmontoya/.gradle/caches/transforms-2/files-2.1/4445fb88bd03a7850a9d8e067866e333/play-services-measurement-17.6.0/AndroidManifest.xml:43:13-69
	android:name
		ADDED from [com.google.android.gms:play-services-measurement:17.6.0] /Users/Danielmontoya/.gradle/caches/transforms-2/files-2.1/4445fb88bd03a7850a9d8e067866e333/play-services-measurement-17.6.0/AndroidManifest.xml:40:13-87
meta-data#com.google.firebase.components:com.google.firebase.analytics.connector.internal.AnalyticsConnectorRegistrar
ADDED from [com.google.android.gms:play-services-measurement-api:17.6.0] /Users/Danielmontoya/.gradle/caches/transforms-2/files-2.1/87892edabe3940311c57274d2e3f6cb3/play-services-measurement-api-17.6.0/AndroidManifest.xml:30:13-32:85
	android:value
		ADDED from [com.google.android.gms:play-services-measurement-api:17.6.0] /Users/Danielmontoya/.gradle/caches/transforms-2/files-2.1/87892edabe3940311c57274d2e3f6cb3/play-services-measurement-api-17.6.0/AndroidManifest.xml:32:17-82
	android:name
		ADDED from [com.google.android.gms:play-services-measurement-api:17.6.0] /Users/Danielmontoya/.gradle/caches/transforms-2/files-2.1/87892edabe3940311c57274d2e3f6cb3/play-services-measurement-api-17.6.0/AndroidManifest.xml:31:17-139
meta-data#com.google.firebase.components:com.google.firebase.installations.FirebaseInstallationsRegistrar
ADDED from [com.google.firebase:firebase-installations:16.3.2] /Users/Danielmontoya/.gradle/caches/transforms-2/files-2.1/ff2efd0259911673380f14d147be15bb/firebase-installations-16.3.2/AndroidManifest.xml:17:13-19:85
	android:value
		ADDED from [com.google.firebase:firebase-installations:16.3.2] /Users/Danielmontoya/.gradle/caches/transforms-2/files-2.1/ff2efd0259911673380f14d147be15bb/firebase-installations-16.3.2/AndroidManifest.xml:19:17-82
	android:name
		ADDED from [com.google.firebase:firebase-installations:16.3.2] /Users/Danielmontoya/.gradle/caches/transforms-2/files-2.1/ff2efd0259911673380f14d147be15bb/firebase-installations-16.3.2/AndroidManifest.xml:18:17-127
provider#com.google.firebase.provider.FirebaseInitProvider
ADDED from [com.google.firebase:firebase-common:19.3.1] /Users/Danielmontoya/.gradle/caches/transforms-2/files-2.1/8c6c0b73e3f47be562c7ae59a2c0f750/jetified-firebase-common-19.3.1/AndroidManifest.xml:26:9-31:39
	android:authorities
		ADDED from [com.google.firebase:firebase-common:19.3.1] /Users/Danielmontoya/.gradle/caches/transforms-2/files-2.1/8c6c0b73e3f47be562c7ae59a2c0f750/jetified-firebase-common-19.3.1/AndroidManifest.xml:28:13-72
	android:exported
		ADDED from [com.google.firebase:firebase-common:19.3.1] /Users/Danielmontoya/.gradle/caches/transforms-2/files-2.1/8c6c0b73e3f47be562c7ae59a2c0f750/jetified-firebase-common-19.3.1/AndroidManifest.xml:30:13-37
	android:directBootAware
		ADDED from [com.google.firebase:firebase-common:19.3.1] /Users/Danielmontoya/.gradle/caches/transforms-2/files-2.1/8c6c0b73e3f47be562c7ae59a2c0f750/jetified-firebase-common-19.3.1/AndroidManifest.xml:29:13-43
	android:initOrder
		ADDED from [com.google.firebase:firebase-common:19.3.1] /Users/Danielmontoya/.gradle/caches/transforms-2/files-2.1/8c6c0b73e3f47be562c7ae59a2c0f750/jetified-firebase-common-19.3.1/AndroidManifest.xml:31:13-36
	android:name
		ADDED from [com.google.firebase:firebase-common:19.3.1] /Users/Danielmontoya/.gradle/caches/transforms-2/files-2.1/8c6c0b73e3f47be562c7ae59a2c0f750/jetified-firebase-common-19.3.1/AndroidManifest.xml:27:13-77
meta-data#com.google.android.gms.version
ADDED from [com.google.android.gms:play-services-basement:17.2.1] /Users/Danielmontoya/.gradle/caches/transforms-2/files-2.1/ca482555484431ac0083f68fd677616d/jetified-play-services-basement-17.2.1/AndroidManifest.xml:23:9-25:69
	android:value
		ADDED from [com.google.android.gms:play-services-basement:17.2.1] /Users/Danielmontoya/.gradle/caches/transforms-2/files-2.1/ca482555484431ac0083f68fd677616d/jetified-play-services-basement-17.2.1/AndroidManifest.xml:25:13-66
	android:name
		ADDED from [com.google.android.gms:play-services-basement:17.2.1] /Users/Danielmontoya/.gradle/caches/transforms-2/files-2.1/ca482555484431ac0083f68fd677616d/jetified-play-services-basement-17.2.1/AndroidManifest.xml:24:13-58
