{
  "configVersion": 2,
  "packages": [
    {
      "name": "async",
      "rootUri": "file:///Users/Danielmontoya/Downloads/flutter%202/.pub-cache/hosted/pub.dartlang.org/async-2.5.0-nullsafety.1",
      "packageUri": "lib/",
      "languageVersion": "2.10"
    },
    {
      "name": "bloc",
      "rootUri": "file:///Users/Danielmontoya/Downloads/flutter%202/.pub-cache/hosted/pub.dartlang.org/bloc-6.1.0",
      "packageUri": "lib/",
      "languageVersion": "2.6"
    },
    {
      "name": "boolean_selector",
      "rootUri": "file:///Users/Danielmontoya/Downloads/flutter%202/.pub-cache/hosted/pub.dartlang.org/boolean_selector-2.1.0-nullsafety.1",
      "packageUri": "lib/",
      "languageVersion": "2.10"
    },
    {
      "name": "characters",
      "rootUri": "file:///Users/Danielmontoya/Downloads/flutter%202/.pub-cache/hosted/pub.dartlang.org/characters-1.1.0-nullsafety.3",
      "packageUri": "lib/",
      "languageVersion": "2.10"
    },
    {
      "name": "charcode",
      "rootUri": "file:///Users/Danielmontoya/Downloads/flutter%202/.pub-cache/hosted/pub.dartlang.org/charcode-1.2.0-nullsafety.1",
      "packageUri": "lib/",
      "languageVersion": "2.10"
    },
    {
      "name": "clock",
      "rootUri": "file:///Users/Danielmontoya/Downloads/flutter%202/.pub-cache/hosted/pub.dartlang.org/clock-1.1.0-nullsafety.1",
      "packageUri": "lib/",
      "languageVersion": "2.10"
    },
    {
      "name": "cloud_firestore",
      "rootUri": "file:///Users/Danielmontoya/Downloads/flutter%202/.pub-cache/hosted/pub.dartlang.org/cloud_firestore-0.14.1+3",
      "packageUri": "lib/",
      "languageVersion": "2.1"
    },
    {
      "name": "cloud_firestore_platform_interface",
      "rootUri": "file:///Users/Danielmontoya/Downloads/flutter%202/.pub-cache/hosted/pub.dartlang.org/cloud_firestore_platform_interface-2.1.2",
      "packageUri": "lib/",
      "languageVersion": "2.0"
    },
    {
      "name": "cloud_firestore_web",
      "rootUri": "file:///Users/Danielmontoya/Downloads/flutter%202/.pub-cache/hosted/pub.dartlang.org/cloud_firestore_web-0.2.0+4",
      "packageUri": "lib/",
      "languageVersion": "2.1"
    },
    {
      "name": "collection",
      "rootUri": "file:///Users/Danielmontoya/Downloads/flutter%202/.pub-cache/hosted/pub.dartlang.org/collection-1.15.0-nullsafety.3",
      "packageUri": "lib/",
      "languageVersion": "2.10"
    },
    {
      "name": "cupertino_icons",
      "rootUri": "file:///Users/Danielmontoya/Downloads/flutter%202/.pub-cache/hosted/pub.dartlang.org/cupertino_icons-1.0.0",
      "packageUri": "lib/",
      "languageVersion": "2.0"
    },
    {
      "name": "equatable",
      "rootUri": "file:///Users/Danielmontoya/Downloads/flutter%202/.pub-cache/hosted/pub.dartlang.org/equatable-1.2.5",
      "packageUri": "lib/",
      "languageVersion": "2.0"
    },
    {
      "name": "fake_async",
      "rootUri": "file:///Users/Danielmontoya/Downloads/flutter%202/.pub-cache/hosted/pub.dartlang.org/fake_async-1.2.0-nullsafety.1",
      "packageUri": "lib/",
      "languageVersion": "2.10"
    },
    {
      "name": "firebase",
      "rootUri": "file:///Users/Danielmontoya/Downloads/flutter%202/.pub-cache/hosted/pub.dartlang.org/firebase-7.3.2",
      "packageUri": "lib/",
      "languageVersion": "2.7"
    },
    {
      "name": "firebase_auth",
      "rootUri": "file:///Users/Danielmontoya/Downloads/flutter%202/.pub-cache/hosted/pub.dartlang.org/firebase_auth-0.18.1+2",
      "packageUri": "lib/",
      "languageVersion": "2.0"
    },
    {
      "name": "firebase_auth_platform_interface",
      "rootUri": "file:///Users/Danielmontoya/Downloads/flutter%202/.pub-cache/hosted/pub.dartlang.org/firebase_auth_platform_interface-2.1.1",
      "packageUri": "lib/",
      "languageVersion": "2.0"
    },
    {
      "name": "firebase_auth_web",
      "rootUri": "file:///Users/Danielmontoya/Downloads/flutter%202/.pub-cache/hosted/pub.dartlang.org/firebase_auth_web-0.3.1+1",
      "packageUri": "lib/",
      "languageVersion": "2.0"
    },
    {
      "name": "firebase_core",
      "rootUri": "file:///Users/Danielmontoya/Downloads/flutter%202/.pub-cache/hosted/pub.dartlang.org/firebase_core-0.5.0+1",
      "packageUri": "lib/",
      "languageVersion": "2.1"
    },
    {
      "name": "firebase_core_platform_interface",
      "rootUri": "file:///Users/Danielmontoya/Downloads/flutter%202/.pub-cache/hosted/pub.dartlang.org/firebase_core_platform_interface-2.0.0",
      "packageUri": "lib/",
      "languageVersion": "2.1"
    },
    {
      "name": "firebase_core_web",
      "rootUri": "file:///Users/Danielmontoya/Downloads/flutter%202/.pub-cache/hosted/pub.dartlang.org/firebase_core_web-0.2.0",
      "packageUri": "lib/",
      "languageVersion": "2.1"
    },
    {
      "name": "flutter",
      "rootUri": "file:///Users/Danielmontoya/Downloads/flutter%202/packages/flutter",
      "packageUri": "lib/",
      "languageVersion": "2.10"
    },
    {
      "name": "flutter_bloc",
      "rootUri": "file:///Users/Danielmontoya/Downloads/flutter%202/.pub-cache/hosted/pub.dartlang.org/flutter_bloc-6.0.6",
      "packageUri": "lib/",
      "languageVersion": "2.6"
    },
    {
      "name": "flutter_plugin_android_lifecycle",
      "rootUri": "file:///Users/Danielmontoya/Downloads/flutter%202/.pub-cache/hosted/pub.dartlang.org/flutter_plugin_android_lifecycle-1.0.11",
      "packageUri": "lib/",
      "languageVersion": "2.1"
    },
    {
      "name": "flutter_test",
      "rootUri": "file:///Users/Danielmontoya/Downloads/flutter%202/packages/flutter_test",
      "packageUri": "lib/",
      "languageVersion": "2.2"
    },
    {
      "name": "flutter_web_plugins",
      "rootUri": "file:///Users/Danielmontoya/Downloads/flutter%202/packages/flutter_web_plugins",
      "packageUri": "lib/",
      "languageVersion": "2.0"
    },
    {
      "name": "geolocator",
      "rootUri": "file:///Users/Danielmontoya/Downloads/flutter%202/.pub-cache/hosted/pub.dartlang.org/geolocator-5.3.2+2",
      "packageUri": "lib/",
      "languageVersion": "2.1"
    },
    {
      "name": "get_it",
      "rootUri": "file:///Users/Danielmontoya/Downloads/flutter%202/.pub-cache/hosted/pub.dartlang.org/get_it-1.1.0",
      "packageUri": "lib/",
      "languageVersion": "2.0"
    },
    {
      "name": "google_api_availability",
      "rootUri": "file:///Users/Danielmontoya/Downloads/flutter%202/.pub-cache/hosted/pub.dartlang.org/google_api_availability-2.0.4",
      "packageUri": "lib/",
      "languageVersion": "2.3"
    },
    {
      "name": "http",
      "rootUri": "file:///Users/Danielmontoya/Downloads/flutter%202/.pub-cache/hosted/pub.dartlang.org/http-0.12.2",
      "packageUri": "lib/",
      "languageVersion": "2.4"
    },
    {
      "name": "http_parser",
      "rootUri": "file:///Users/Danielmontoya/Downloads/flutter%202/.pub-cache/hosted/pub.dartlang.org/http_parser-3.1.4",
      "packageUri": "lib/",
      "languageVersion": "2.3"
    },
    {
      "name": "intl",
      "rootUri": "file:///Users/Danielmontoya/Downloads/flutter%202/.pub-cache/hosted/pub.dartlang.org/intl-0.16.1",
      "packageUri": "lib/",
      "languageVersion": "2.5"
    },
    {
      "name": "js",
      "rootUri": "file:///Users/Danielmontoya/Downloads/flutter%202/.pub-cache/hosted/pub.dartlang.org/js-0.6.2",
      "packageUri": "lib/",
      "languageVersion": "2.0"
    },
    {
      "name": "local_auth",
      "rootUri": "file:///Users/Danielmontoya/Downloads/flutter%202/.pub-cache/hosted/pub.dartlang.org/local_auth-0.6.3+3",
      "packageUri": "lib/",
      "languageVersion": "2.1"
    },
    {
      "name": "location_permissions",
      "rootUri": "file:///Users/Danielmontoya/Downloads/flutter%202/.pub-cache/hosted/pub.dartlang.org/location_permissions-3.0.0+1",
      "packageUri": "lib/",
      "languageVersion": "2.1"
    },
    {
      "name": "matcher",
      "rootUri": "file:///Users/Danielmontoya/Downloads/flutter%202/.pub-cache/hosted/pub.dartlang.org/matcher-0.12.10-nullsafety.1",
      "packageUri": "lib/",
      "languageVersion": "2.10"
    },
    {
      "name": "meta",
      "rootUri": "file:///Users/Danielmontoya/Downloads/flutter%202/.pub-cache/hosted/pub.dartlang.org/meta-1.3.0-nullsafety.3",
      "packageUri": "lib/",
      "languageVersion": "2.10"
    },
    {
      "name": "nested",
      "rootUri": "file:///Users/Danielmontoya/Downloads/flutter%202/.pub-cache/hosted/pub.dartlang.org/nested-0.0.4",
      "packageUri": "lib/",
      "languageVersion": "2.2"
    },
    {
      "name": "path",
      "rootUri": "file:///Users/Danielmontoya/Downloads/flutter%202/.pub-cache/hosted/pub.dartlang.org/path-1.8.0-nullsafety.1",
      "packageUri": "lib/",
      "languageVersion": "2.10"
    },
    {
      "name": "pedantic",
      "rootUri": "file:///Users/Danielmontoya/Downloads/flutter%202/.pub-cache/hosted/pub.dartlang.org/pedantic-1.9.2",
      "packageUri": "lib/",
      "languageVersion": "2.1"
    },
    {
      "name": "platform",
      "rootUri": "file:///Users/Danielmontoya/Downloads/flutter%202/.pub-cache/hosted/pub.dartlang.org/platform-2.2.1",
      "packageUri": "lib/",
      "languageVersion": "1.24"
    },
    {
      "name": "plugin_platform_interface",
      "rootUri": "file:///Users/Danielmontoya/Downloads/flutter%202/.pub-cache/hosted/pub.dartlang.org/plugin_platform_interface-1.0.3",
      "packageUri": "lib/",
      "languageVersion": "2.1"
    },
    {
      "name": "provider",
      "rootUri": "file:///Users/Danielmontoya/Downloads/flutter%202/.pub-cache/hosted/pub.dartlang.org/provider-4.3.2+2",
      "packageUri": "lib/",
      "languageVersion": "2.7"
    },
    {
      "name": "quiver",
      "rootUri": "file:///Users/Danielmontoya/Downloads/flutter%202/.pub-cache/hosted/pub.dartlang.org/quiver-2.1.3",
      "packageUri": "lib/",
      "languageVersion": "2.0"
    },
    {
      "name": "sky_engine",
      "rootUri": "file:///Users/Danielmontoya/Downloads/flutter%202/bin/cache/pkg/sky_engine",
      "packageUri": "lib/",
      "languageVersion": "1.11"
    },
    {
      "name": "source_span",
      "rootUri": "file:///Users/Danielmontoya/Downloads/flutter%202/.pub-cache/hosted/pub.dartlang.org/source_span-1.8.0-nullsafety.2",
      "packageUri": "lib/",
      "languageVersion": "2.10"
    },
    {
      "name": "stack_trace",
      "rootUri": "file:///Users/Danielmontoya/Downloads/flutter%202/.pub-cache/hosted/pub.dartlang.org/stack_trace-1.10.0-nullsafety.1",
      "packageUri": "lib/",
      "languageVersion": "2.10"
    },
    {
      "name": "stream_channel",
      "rootUri": "file:///Users/Danielmontoya/Downloads/flutter%202/.pub-cache/hosted/pub.dartlang.org/stream_channel-2.1.0-nullsafety.1",
      "packageUri": "lib/",
      "languageVersion": "2.10"
    },
    {
      "name": "string_scanner",
      "rootUri": "file:///Users/Danielmontoya/Downloads/flutter%202/.pub-cache/hosted/pub.dartlang.org/string_scanner-1.1.0-nullsafety.1",
      "packageUri": "lib/",
      "languageVersion": "2.10"
    },
    {
      "name": "term_glyph",
      "rootUri": "file:///Users/Danielmontoya/Downloads/flutter%202/.pub-cache/hosted/pub.dartlang.org/term_glyph-1.2.0-nullsafety.1",
      "packageUri": "lib/",
      "languageVersion": "2.10"
    },
    {
      "name": "test_api",
      "rootUri": "file:///Users/Danielmontoya/Downloads/flutter%202/.pub-cache/hosted/pub.dartlang.org/test_api-0.2.19-nullsafety.2",
      "packageUri": "lib/",
      "languageVersion": "2.10"
    },
    {
      "name": "typed_data",
      "rootUri": "file:///Users/Danielmontoya/Downloads/flutter%202/.pub-cache/hosted/pub.dartlang.org/typed_data-1.3.0-nullsafety.3",
      "packageUri": "lib/",
      "languageVersion": "2.10"
    },
    {
      "name": "url_launcher",
      "rootUri": "file:///Users/Danielmontoya/Downloads/flutter%202/.pub-cache/hosted/pub.dartlang.org/url_launcher-5.7.5",
      "packageUri": "lib/",
      "languageVersion": "2.1"
    },
    {
      "name": "url_launcher_linux",
      "rootUri": "file:///Users/Danielmontoya/Downloads/flutter%202/.pub-cache/hosted/pub.dartlang.org/url_launcher_linux-0.0.1+1",
      "packageUri": "lib/",
      "languageVersion": "2.1"
    },
    {
      "name": "url_launcher_macos",
      "rootUri": "file:///Users/Danielmontoya/Downloads/flutter%202/.pub-cache/hosted/pub.dartlang.org/url_launcher_macos-0.0.1+8",
      "packageUri": "lib/",
      "languageVersion": "2.1"
    },
    {
      "name": "url_launcher_platform_interface",
      "rootUri": "file:///Users/Danielmontoya/Downloads/flutter%202/.pub-cache/hosted/pub.dartlang.org/url_launcher_platform_interface-1.0.8",
      "packageUri": "lib/",
      "languageVersion": "2.1"
    },
    {
      "name": "url_launcher_web",
      "rootUri": "file:///Users/Danielmontoya/Downloads/flutter%202/.pub-cache/hosted/pub.dartlang.org/url_launcher_web-0.1.4+1",
      "packageUri": "lib/",
      "languageVersion": "2.2"
    },
    {
      "name": "url_launcher_windows",
      "rootUri": "file:///Users/Danielmontoya/Downloads/flutter%202/.pub-cache/hosted/pub.dartlang.org/url_launcher_windows-0.0.1+1",
      "packageUri": "lib/",
      "languageVersion": "2.1"
    },
    {
      "name": "vector_math",
      "rootUri": "file:///Users/Danielmontoya/Downloads/flutter%202/.pub-cache/hosted/pub.dartlang.org/vector_math-2.1.0-nullsafety.3",
      "packageUri": "lib/",
      "languageVersion": "2.10"
    },
    {
      "name": "flutter_app",
      "rootUri": "../",
      "packageUri": "lib/",
      "languageVersion": "2.7"
    }
  ],
  "generated": "2020-10-30T01:50:58.333929Z",
  "generator": "pub",
  "generatorVersion": "2.10.2"
}
